<?xml version="1.0" encoding="UTF-8" standalone="no"?>
<!-- Created with Inkscape (http://www.inkscape.org/) -->

<svg
   xmlns:dc="http://purl.org/dc/elements/1.1/"
   xmlns:cc="http://creativecommons.org/ns#"
   xmlns:rdf="http://www.w3.org/1999/02/22-rdf-syntax-ns#"
   xmlns:svg="http://www.w3.org/2000/svg"
   xmlns="http://www.w3.org/2000/svg"
   xmlns:xlink="http://www.w3.org/1999/xlink"
   xmlns:sodipodi="http://sodipodi.sourceforge.net/DTD/sodipodi-0.dtd"
   xmlns:inkscape="http://www.inkscape.org/namespaces/inkscape"
   width="180.30782mm"
   height="89.590599mm"
   viewBox="0 0 180.30781 89.590602"
   version="1.1"
   id="svg8"
   inkscape:version="0.92.5 (2060ec1f9f, 2020-04-08)"
   sodipodi:docname="commit_example_staged.svg"
   inkscape:export-filename="/home/dennis/repos/sustainable-simulation-software/course-material/git_basics/img/snapshots.png"
   inkscape:export-xdpi="300.78949"
   inkscape:export-ydpi="300.78949">
  <defs
     id="defs2">
    <marker
       inkscape:stockid="Arrow2Lend"
       orient="auto"
       refY="0"
       refX="0"
       id="marker10575"
       style="overflow:visible"
       inkscape:isstock="true">
      <path
         id="path10295"
         style="fill:#000000;fill-opacity:1;fill-rule:evenodd;stroke:#000000;stroke-width:0.625;stroke-linejoin:round;stroke-opacity:1"
         d="M 8.7185878,4.0337352 -2.2072895,0.01601326 8.7185884,-4.0017078 c -1.7454984,2.3720609 -1.7354408,5.6174519 -6e-7,8.035443 z"
         transform="matrix(-1.1,0,0,-1.1,-1.1,0)"
         inkscape:connector-curvature="0" />
    </marker>
    <marker
       inkscape:stockid="Arrow1Lend"
       orient="auto"
       refY="0"
       refX="0"
       id="Arrow1Lend"
       style="overflow:visible"
       inkscape:isstock="true">
      <path
         id="path10277"
         d="M 0,0 5,-5 -12.5,0 5,5 Z"
         style="fill:#000000;fill-opacity:1;fill-rule:evenodd;stroke:#000000;stroke-width:1.00000003pt;stroke-opacity:1"
         transform="matrix(-0.8,0,0,-0.8,-10,0)"
         inkscape:connector-curvature="0" />
    </marker>
    <inkscape:path-effect
       effect="spiro"
       id="path-effect10272"
       is_visible="true" />
    <marker
       inkscape:stockid="Arrow2Lend"
       orient="auto"
       refY="0"
       refX="0"
       id="Arrow2Lend"
       style="overflow:visible"
       inkscape:isstock="true">
      <path
         id="path970"
         style="fill:#000000;fill-opacity:1;fill-rule:evenodd;stroke:#000000;stroke-width:0.625;stroke-linejoin:round;stroke-opacity:1"
         d="M 8.7185878,4.0337352 -2.2072895,0.01601326 8.7185884,-4.0017078 c -1.7454984,2.3720609 -1.7354408,5.6174519 -6e-7,8.035443 z"
         transform="matrix(-1.1,0,0,-1.1,-1.1,0)"
         inkscape:connector-curvature="0" />
    </marker>
    <inkscape:path-effect
       effect="spiro"
       id="path-effect929"
       is_visible="true" />
    <inkscape:path-effect
       effect="spiro"
       id="path-effect821"
       is_visible="true" />
    <inkscape:path-effect
       effect="spiro"
       id="path-effect821-2"
       is_visible="true" />
    <inkscape:path-effect
       effect="spiro"
       id="path-effect821-2-9"
       is_visible="true" />
    <marker
       inkscape:stockid="Arrow2Lend"
       orient="auto"
       refY="0"
       refX="0"
       id="Arrow2Lend-4"
       style="overflow:visible"
       inkscape:isstock="true">
      <path
         inkscape:connector-curvature="0"
         id="path970-3"
         style="fill:#000000;fill-opacity:1;fill-rule:evenodd;stroke:#000000;stroke-width:0.625;stroke-linejoin:round;stroke-opacity:1"
         d="M 8.7185878,4.0337352 -2.2072895,0.01601326 8.7185884,-4.0017078 c -1.7454984,2.3720609 -1.7354408,5.6174519 -6e-7,8.035443 z"
         transform="matrix(-1.1,0,0,-1.1,-1.1,0)" />
    </marker>
    <inkscape:path-effect
       effect="spiro"
       id="path-effect929-9"
       is_visible="true" />
    <marker
       inkscape:stockid="Arrow2Lend"
       orient="auto"
       refY="0"
       refX="0"
       id="Arrow2Lend-7"
       style="overflow:visible"
       inkscape:isstock="true">
      <path
         inkscape:connector-curvature="0"
         id="path970-6"
         style="fill:#000000;fill-opacity:1;fill-rule:evenodd;stroke:#000000;stroke-width:0.625;stroke-linejoin:round;stroke-opacity:1"
         d="M 8.7185878,4.0337352 -2.2072895,0.01601326 8.7185884,-4.0017078 c -1.7454984,2.3720609 -1.7354408,5.6174519 -6e-7,8.035443 z"
         transform="matrix(-1.1,0,0,-1.1,-1.1,0)" />
    </marker>
    <inkscape:path-effect
       effect="spiro"
       id="path-effect929-5"
       is_visible="true" />
    <filter
       style="color-interpolation-filters:sRGB"
       inkscape:label="Drop Shadow"
       id="filter1525">
      <feFlood
         flood-opacity="0.498039"
         flood-color="rgb(0,0,0)"
         result="flood"
         id="feFlood1515" />
      <feComposite
         in="flood"
         in2="SourceGraphic"
         operator="in"
         result="composite1"
         id="feComposite1517" />
      <feGaussianBlur
         in="composite1"
         stdDeviation="0"
         result="blur"
         id="feGaussianBlur1519" />
      <feOffset
         dx="1"
         dy="1"
         result="offset"
         id="feOffset1521" />
      <feComposite
         in="SourceGraphic"
         in2="offset"
         operator="over"
         result="composite2"
         id="feComposite1523" />
    </filter>
    <filter
       style="color-interpolation-filters:sRGB"
       inkscape:label="Drop Shadow"
       id="filter1671">
      <feFlood
         flood-opacity="0.498039"
         flood-color="rgb(0,0,0)"
         result="flood"
         id="feFlood1661" />
      <feComposite
         in="flood"
         in2="SourceGraphic"
         operator="in"
         result="composite1"
         id="feComposite1663" />
      <feGaussianBlur
         in="composite1"
         stdDeviation="1"
         result="blur"
         id="feGaussianBlur1665" />
      <feOffset
         dx="1"
         dy="1"
         result="offset"
         id="feOffset1667" />
      <feComposite
         in="SourceGraphic"
         in2="offset"
         operator="over"
         result="composite2"
         id="feComposite1669" />
    </filter>
    <filter
       style="color-interpolation-filters:sRGB"
       inkscape:label="Drop Shadow"
       id="filter1671-4">
      <feFlood
         flood-opacity="0.498039"
         flood-color="rgb(0,0,0)"
         result="flood"
         id="feFlood1661-9" />
      <feComposite
         in="flood"
         in2="SourceGraphic"
         operator="in"
         result="composite1"
         id="feComposite1663-2" />
      <feGaussianBlur
         in="composite1"
         stdDeviation="1"
         result="blur"
         id="feGaussianBlur1665-7" />
      <feOffset
         dx="1"
         dy="1"
         result="offset"
         id="feOffset1667-4" />
      <feComposite
         in="SourceGraphic"
         in2="offset"
         operator="over"
         result="composite2"
         id="feComposite1669-2" />
    </filter>
    <filter
       style="color-interpolation-filters:sRGB"
       inkscape:label="Drop Shadow"
       id="filter1671-4-4">
      <feFlood
         flood-opacity="0.498039"
         flood-color="rgb(0,0,0)"
         result="flood"
         id="feFlood1661-9-4" />
      <feComposite
         in="flood"
         in2="SourceGraphic"
         operator="in"
         result="composite1"
         id="feComposite1663-2-3" />
      <feGaussianBlur
         in="composite1"
         stdDeviation="1"
         result="blur"
         id="feGaussianBlur1665-7-8" />
      <feOffset
         dx="1"
         dy="1"
         result="offset"
         id="feOffset1667-4-6" />
      <feComposite
         in="SourceGraphic"
         in2="offset"
         operator="over"
         result="composite2"
         id="feComposite1669-2-0" />
    </filter>
    <filter
       style="color-interpolation-filters:sRGB"
       inkscape:label="Drop Shadow"
       id="filter1671-1">
      <feFlood
         flood-opacity="0.498039"
         flood-color="rgb(0,0,0)"
         result="flood"
         id="feFlood1661-7" />
      <feComposite
         in="flood"
         in2="SourceGraphic"
         operator="in"
         result="composite1"
         id="feComposite1663-5" />
      <feGaussianBlur
         in="composite1"
         stdDeviation="1"
         result="blur"
         id="feGaussianBlur1665-71" />
      <feOffset
         dx="1"
         dy="1"
         result="offset"
         id="feOffset1667-6" />
      <feComposite
         in="SourceGraphic"
         in2="offset"
         operator="over"
         result="composite2"
         id="feComposite1669-9" />
    </filter>
    <filter
       style="color-interpolation-filters:sRGB"
       inkscape:label="Drop Shadow"
       id="filter1671-7">
      <feFlood
         flood-opacity="0.498039"
         flood-color="rgb(0,0,0)"
         result="flood"
         id="feFlood1661-0" />
      <feComposite
         in="flood"
         in2="SourceGraphic"
         operator="in"
         result="composite1"
         id="feComposite1663-4" />
      <feGaussianBlur
         in="composite1"
         stdDeviation="1"
         result="blur"
         id="feGaussianBlur1665-8" />
      <feOffset
         dx="1"
         dy="1"
         result="offset"
         id="feOffset1667-48" />
      <feComposite
         in="SourceGraphic"
         in2="offset"
         operator="over"
         result="composite2"
         id="feComposite1669-1" />
    </filter>
    <filter
       style="color-interpolation-filters:sRGB"
       inkscape:label="Drop Shadow"
       id="filter1671-40">
      <feFlood
         flood-opacity="0.498039"
         flood-color="rgb(0,0,0)"
         result="flood"
         id="feFlood1661-6" />
      <feComposite
         in="flood"
         in2="SourceGraphic"
         operator="in"
         result="composite1"
         id="feComposite1663-29" />
      <feGaussianBlur
         in="composite1"
         stdDeviation="1"
         result="blur"
         id="feGaussianBlur1665-9" />
      <feOffset
         dx="1"
         dy="1"
         result="offset"
         id="feOffset1667-0" />
      <feComposite
         in="SourceGraphic"
         in2="offset"
         operator="over"
         result="composite2"
         id="feComposite1669-8" />
    </filter>
    <filter
       style="color-interpolation-filters:sRGB"
       inkscape:label="Drop Shadow"
       id="filter1671-40-4">
      <feFlood
         flood-opacity="0.498039"
         flood-color="rgb(0,0,0)"
         result="flood"
         id="feFlood1661-6-0" />
      <feComposite
         in="flood"
         in2="SourceGraphic"
         operator="in"
         result="composite1"
         id="feComposite1663-29-0" />
      <feGaussianBlur
         in="composite1"
         stdDeviation="1"
         result="blur"
         id="feGaussianBlur1665-9-4" />
      <feOffset
         dx="1"
         dy="1"
         result="offset"
         id="feOffset1667-0-6" />
      <feComposite
         in="SourceGraphic"
         in2="offset"
         operator="over"
         result="composite2"
         id="feComposite1669-8-2" />
    </filter>
    <filter
       style="color-interpolation-filters:sRGB"
       inkscape:label="Drop Shadow"
       id="filter1671-40-4-9">
      <feFlood
         flood-opacity="0.498039"
         flood-color="rgb(0,0,0)"
         result="flood"
         id="feFlood1661-6-0-6" />
      <feComposite
         in="flood"
         in2="SourceGraphic"
         operator="in"
         result="composite1"
         id="feComposite1663-29-0-2" />
      <feGaussianBlur
         in="composite1"
         stdDeviation="1"
         result="blur"
         id="feGaussianBlur1665-9-4-5" />
      <feOffset
         dx="1"
         dy="1"
         result="offset"
         id="feOffset1667-0-6-4" />
      <feComposite
         in="SourceGraphic"
         in2="offset"
         operator="over"
         result="composite2"
         id="feComposite1669-8-2-4" />
    </filter>
    <filter
       style="color-interpolation-filters:sRGB"
       inkscape:label="Drop Shadow"
       id="filter1671-40-9">
      <feFlood
         flood-opacity="0.498039"
         flood-color="rgb(0,0,0)"
         result="flood"
         id="feFlood1661-6-9" />
      <feComposite
         in="flood"
         in2="SourceGraphic"
         operator="in"
         result="composite1"
         id="feComposite1663-29-3" />
      <feGaussianBlur
         in="composite1"
         stdDeviation="1"
         result="blur"
         id="feGaussianBlur1665-9-6" />
      <feOffset
         dx="1"
         dy="1"
         result="offset"
         id="feOffset1667-0-0" />
      <feComposite
         in="SourceGraphic"
         in2="offset"
         operator="over"
         result="composite2"
         id="feComposite1669-8-5" />
    </filter>
    <filter
       style="color-interpolation-filters:sRGB"
       inkscape:label="Drop Shadow"
       id="filter1671-0">
      <feFlood
         flood-opacity="0.498039"
         flood-color="rgb(0,0,0)"
         result="flood"
         id="feFlood1661-2" />
      <feComposite
         in="flood"
         in2="SourceGraphic"
         operator="in"
         result="composite1"
         id="feComposite1663-9" />
      <feGaussianBlur
         in="composite1"
         stdDeviation="1"
         result="blur"
         id="feGaussianBlur1665-4" />
      <feOffset
         dx="1"
         dy="1"
         result="offset"
         id="feOffset1667-3" />
      <feComposite
         in="SourceGraphic"
         in2="offset"
         operator="over"
         result="composite2"
         id="feComposite1669-5" />
    </filter>
    <filter
       style="color-interpolation-filters:sRGB"
       inkscape:label="Drop Shadow"
       id="filter1671-40-4-9-8">
      <feFlood
         flood-opacity="0.498039"
         flood-color="rgb(0,0,0)"
         result="flood"
         id="feFlood1661-6-0-6-3" />
      <feComposite
         in="flood"
         in2="SourceGraphic"
         operator="in"
         result="composite1"
         id="feComposite1663-29-0-2-0" />
      <feGaussianBlur
         in="composite1"
         stdDeviation="1"
         result="blur"
         id="feGaussianBlur1665-9-4-5-1" />
      <feOffset
         dx="1"
         dy="1"
         result="offset"
         id="feOffset1667-0-6-4-7" />
      <feComposite
         in="SourceGraphic"
         in2="offset"
         operator="over"
         result="composite2"
         id="feComposite1669-8-2-4-8" />
    </filter>
    <filter
       style="color-interpolation-filters:sRGB"
       inkscape:label="Drop Shadow"
       id="filter1671-40-9-9">
      <feFlood
         flood-opacity="0.498039"
         flood-color="rgb(0,0,0)"
         result="flood"
         id="feFlood1661-6-9-1" />
      <feComposite
         in="flood"
         in2="SourceGraphic"
         operator="in"
         result="composite1"
         id="feComposite1663-29-3-5" />
      <feGaussianBlur
         in="composite1"
         stdDeviation="1"
         result="blur"
         id="feGaussianBlur1665-9-6-4" />
      <feOffset
         dx="1"
         dy="1"
         result="offset"
         id="feOffset1667-0-0-9" />
      <feComposite
         in="SourceGraphic"
         in2="offset"
         operator="over"
         result="composite2"
         id="feComposite1669-8-5-2" />
    </filter>
    <filter
       style="color-interpolation-filters:sRGB"
       inkscape:label="Drop Shadow"
       id="filter1671-0-5">
      <feFlood
         flood-opacity="0.498039"
         flood-color="rgb(0,0,0)"
         result="flood"
         id="feFlood1661-2-7" />
      <feComposite
         in="flood"
         in2="SourceGraphic"
         operator="in"
         result="composite1"
         id="feComposite1663-9-4" />
      <feGaussianBlur
         in="composite1"
         stdDeviation="1"
         result="blur"
         id="feGaussianBlur1665-4-9" />
      <feOffset
         dx="1"
         dy="1"
         result="offset"
         id="feOffset1667-3-9" />
      <feComposite
         in="SourceGraphic"
         in2="offset"
         operator="over"
         result="composite2"
         id="feComposite1669-5-4" />
    </filter>
    <marker
       inkscape:stockid="Arrow2Lend"
       orient="auto"
       refY="0"
       refX="0"
       id="marker10575-5"
       style="overflow:visible"
       inkscape:isstock="true">
      <path
         inkscape:connector-curvature="0"
         id="path10295-9"
         style="fill:#000000;fill-opacity:1;fill-rule:evenodd;stroke:#000000;stroke-width:0.625;stroke-linejoin:round;stroke-opacity:1"
         d="M 8.7185878,4.0337352 -2.2072895,0.01601326 8.7185884,-4.0017078 c -1.7454984,2.3720609 -1.7354408,5.6174519 -6e-7,8.035443 z"
         transform="matrix(-1.1,0,0,-1.1,-1.1,0)" />
    </marker>
    <inkscape:path-effect
       effect="spiro"
       id="path-effect10272-3"
       is_visible="true" />
    <filter
       style="color-interpolation-filters:sRGB"
       inkscape:label="Drop Shadow"
       id="filter3358-7">
      <feFlood
         flood-opacity="0.498039"
         flood-color="rgb(0,0,0)"
         result="flood"
         id="feFlood3348-0" />
      <feComposite
         in="flood"
         in2="SourceGraphic"
         operator="in"
         result="composite1"
         id="feComposite3350-6" />
      <feGaussianBlur
         in="composite1"
         stdDeviation="1"
         result="blur"
         id="feGaussianBlur3352-0" />
      <feOffset
         dx="1"
         dy="1"
         result="offset"
         id="feOffset3354-8" />
      <feComposite
         in="SourceGraphic"
         in2="offset"
         operator="over"
         result="fbSourceGraphic"
         id="feComposite3356-5" />
      <feColorMatrix
         result="fbSourceGraphicAlpha"
         in="fbSourceGraphic"
         values="0 0 0 -1 0 0 0 0 -1 0 0 0 0 -1 0 0 0 0 1 0"
         id="feColorMatrix8054" />
      <feFlood
         id="feFlood8056"
         flood-opacity="0.498039"
         flood-color="rgb(0,0,0)"
         result="flood"
         in="fbSourceGraphic" />
      <feComposite
         in2="fbSourceGraphic"
         id="feComposite8058"
         in="flood"
         operator="in"
         result="composite1" />
      <feGaussianBlur
         id="feGaussianBlur8060"
         in="composite1"
         stdDeviation="4.4"
         result="blur" />
      <feOffset
         id="feOffset8062"
         dx="1"
         dy="1"
         result="offset" />
      <feComposite
         in2="offset"
         id="feComposite8064"
         in="fbSourceGraphic"
         operator="over"
         result="composite2" />
    </filter>
    <filter
       style="color-interpolation-filters:sRGB"
       inkscape:label="Drop Shadow"
       id="filter1671-0-5-7">
      <feFlood
         flood-opacity="0.498039"
         flood-color="rgb(0,0,0)"
         result="flood"
         id="feFlood1661-2-7-4" />
      <feComposite
         in="flood"
         in2="SourceGraphic"
         operator="in"
         result="composite1"
         id="feComposite1663-9-4-8" />
      <feGaussianBlur
         in="composite1"
         stdDeviation="1"
         result="blur"
         id="feGaussianBlur1665-4-9-5" />
      <feOffset
         dx="1"
         dy="1"
         result="offset"
         id="feOffset1667-3-9-8" />
      <feComposite
         in="SourceGraphic"
         in2="offset"
         operator="over"
         result="composite2"
         id="feComposite1669-5-4-2" />
    </filter>
    <filter
       style="color-interpolation-filters:sRGB"
       inkscape:label="Drop Shadow"
       id="filter3358-7-6">
      <feFlood
         flood-opacity="0.498039"
         flood-color="rgb(0,0,0)"
         result="flood"
         id="feFlood3348-0-2" />
      <feComposite
         in="flood"
         in2="SourceGraphic"
         operator="in"
         result="composite1"
         id="feComposite3350-6-8" />
      <feGaussianBlur
         in="composite1"
         stdDeviation="1"
         result="blur"
         id="feGaussianBlur3352-0-9" />
      <feOffset
         dx="1"
         dy="1"
         result="offset"
         id="feOffset3354-8-6" />
      <feComposite
         in="SourceGraphic"
         in2="offset"
         operator="over"
         result="fbSourceGraphic"
         id="feComposite3356-5-0" />
      <feColorMatrix
         result="fbSourceGraphicAlpha"
         in="fbSourceGraphic"
         values="0 0 0 -1 0 0 0 0 -1 0 0 0 0 -1 0 0 0 0 1 0"
         id="feColorMatrix8054-7" />
      <feFlood
         id="feFlood8056-0"
         flood-opacity="0.498039"
         flood-color="rgb(0,0,0)"
         result="flood"
         in="fbSourceGraphic" />
      <feComposite
         in2="fbSourceGraphic"
         id="feComposite8058-1"
         in="flood"
         operator="in"
         result="composite1" />
      <feGaussianBlur
         id="feGaussianBlur8060-0"
         in="composite1"
         stdDeviation="4.4"
         result="blur" />
      <feOffset
         id="feOffset8062-1"
         dx="1"
         dy="1"
         result="offset" />
      <feComposite
         in2="offset"
         id="feComposite8064-3"
         in="fbSourceGraphic"
         operator="over"
         result="composite2" />
    </filter>
    <filter
       style="color-interpolation-filters:sRGB"
       inkscape:label="Drop Shadow"
       id="filter1671-40-4-9-8-7">
      <feFlood
         flood-opacity="0.498039"
         flood-color="rgb(0,0,0)"
         result="flood"
         id="feFlood1661-6-0-6-3-7" />
      <feComposite
         in="flood"
         in2="SourceGraphic"
         operator="in"
         result="composite1"
         id="feComposite1663-29-0-2-0-2" />
      <feGaussianBlur
         in="composite1"
         stdDeviation="1"
         result="blur"
         id="feGaussianBlur1665-9-4-5-1-6" />
      <feOffset
         dx="1"
         dy="1"
         result="offset"
         id="feOffset1667-0-6-4-7-4" />
      <feComposite
         in="SourceGraphic"
         in2="offset"
         operator="over"
         result="composite2"
         id="feComposite1669-8-2-4-8-5" />
    </filter>
    <filter
       style="color-interpolation-filters:sRGB"
       inkscape:label="Drop Shadow"
       id="filter1671-0-5-2">
      <feFlood
         flood-opacity="0.498039"
         flood-color="rgb(0,0,0)"
         result="flood"
         id="feFlood1661-2-7-0" />
      <feComposite
         in="flood"
         in2="SourceGraphic"
         operator="in"
         result="composite1"
         id="feComposite1663-9-4-2" />
      <feGaussianBlur
         in="composite1"
         stdDeviation="1"
         result="blur"
         id="feGaussianBlur1665-4-9-9" />
      <feOffset
         dx="1"
         dy="1"
         result="offset"
         id="feOffset1667-3-9-0" />
      <feComposite
         in="SourceGraphic"
         in2="offset"
         operator="over"
         result="composite2"
         id="feComposite1669-5-4-9" />
    </filter>
    <marker
       inkscape:stockid="Arrow2Lend"
       orient="auto"
       refY="0"
       refX="0"
       id="marker10575-5-9"
       style="overflow:visible"
       inkscape:isstock="true">
      <path
         inkscape:connector-curvature="0"
         id="path10295-9-4"
         style="fill:#000000;fill-opacity:1;fill-rule:evenodd;stroke:#000000;stroke-width:0.625;stroke-linejoin:round;stroke-opacity:1"
         d="M 8.7185878,4.0337352 -2.2072895,0.01601326 8.7185884,-4.0017078 c -1.7454984,2.3720609 -1.7354408,5.6174519 -6e-7,8.035443 z"
         transform="matrix(-1.1,0,0,-1.1,-1.1,0)" />
    </marker>
    <inkscape:path-effect
       effect="spiro"
       id="path-effect10272-3-5"
       is_visible="true" />
    <filter
       style="color-interpolation-filters:sRGB"
       inkscape:label="Drop Shadow"
       id="filter1671-0-5-7-1">
      <feFlood
         flood-opacity="0.498039"
         flood-color="rgb(0,0,0)"
         result="flood"
         id="feFlood1661-2-7-4-0" />
      <feComposite
         in="flood"
         in2="SourceGraphic"
         operator="in"
         result="composite1"
         id="feComposite1663-9-4-8-3" />
      <feGaussianBlur
         in="composite1"
         stdDeviation="1"
         result="blur"
         id="feGaussianBlur1665-4-9-5-7" />
      <feOffset
         dx="1"
         dy="1"
         result="offset"
         id="feOffset1667-3-9-8-8" />
      <feComposite
         in="SourceGraphic"
         in2="offset"
         operator="over"
         result="composite2"
         id="feComposite1669-5-4-2-8" />
    </filter>
    <marker
       inkscape:stockid="Arrow2Lend"
       orient="auto"
       refY="0"
       refX="0"
       id="Arrow2Lend-9"
       style="overflow:visible"
       inkscape:isstock="true">
      <path
         id="path970-93"
         style="fill:#000000;fill-opacity:1;fill-rule:evenodd;stroke:#000000;stroke-width:0.625;stroke-linejoin:round;stroke-opacity:1"
         d="M 8.7185878,4.0337352 -2.2072895,0.01601326 8.7185884,-4.0017078 c -1.7454984,2.3720609 -1.7354408,5.6174519 -6e-7,8.035443 z"
         transform="matrix(-1.1,0,0,-1.1,-1.1,0)"
         inkscape:connector-curvature="0" />
    </marker>
    <inkscape:path-effect
       effect="spiro"
       id="path-effect929-2"
       is_visible="true" />
  </defs>
  <sodipodi:namedview
     id="base"
     pagecolor="#ffffff"
     bordercolor="#666666"
     borderopacity="1.0"
     inkscape:pageopacity="0.0"
     inkscape:pageshadow="2"
     inkscape:zoom="2.8"
     inkscape:cx="186.81089"
     inkscape:cy="157.71036"
     inkscape:document-units="mm"
     inkscape:current-layer="layer1"
     showgrid="false"
     inkscape:window-width="3840"
     inkscape:window-height="2086"
     inkscape:window-x="0"
     inkscape:window-y="0"
     inkscape:window-maximized="1"
     fit-margin-top="0"
     fit-margin-left="0"
     fit-margin-right="0"
     fit-margin-bottom="0">
    <inkscape:grid
       type="xygrid"
       id="grid817"
       originx="32.829725"
       originy="-93.271911" />
  </sodipodi:namedview>
  <metadata
     id="metadata5">
    <rdf:RDF>
      <cc:Work
         rdf:about="">
        <dc:format>image/svg+xml</dc:format>
        <dc:type
           rdf:resource="http://purl.org/dc/dcmitype/StillImage" />
        <dc:title />
      </cc:Work>
    </rdf:RDF>
  </metadata>
  <g
     inkscape:label="Layer 1"
     inkscape:groupmode="layer"
     id="layer1"
     transform="translate(32.829725,-114.13751)">
    <g
       id="g11790"
       transform="translate(-0.462466)">
      <rect
         transform="matrix(0.30228262,0,0,0.7347649,96.040539,53.922638)"
         y="157.5623"
         x="-36.538593"
         height="20.221727"
         width="33.923363"
         id="rect1527-4-7-6"
         style="opacity:1;fill:#ffffff;fill-opacity:1;fill-rule:evenodd;stroke:none;stroke-width:0.56229609;stroke-linecap:round;stroke-linejoin:round;stroke-miterlimit:4;stroke-dasharray:none;stroke-dashoffset:0;stroke-opacity:1;filter:url(#filter1671-0-5-7)" />
      <text
         transform="scale(0.95067219,1.0518873)"
         id="text871-9-3-0-0"
         y="163.81732"
         x="90.219849"
         style="font-style:normal;font-weight:normal;font-size:3.36515331px;line-height:1.25;font-family:sans-serif;letter-spacing:0px;word-spacing:0px;fill:#000000;fill-opacity:1;stroke:none;stroke-width:0.26458332"
         xml:space="preserve"><tspan
           style="font-style:normal;font-variant:normal;font-weight:normal;font-stretch:normal;font-size:2.01909208px;font-family:Lato;-inkscape-font-specification:Lato;stroke-width:0.26458332"
           y="163.81732"
           x="90.219849"
           id="tspan869-2-14-8-6"
           sodipodi:role="line">Title</tspan></text>
      <text
         transform="scale(0.95067219,1.0518873)"
         id="text871-9-3-3-6-6"
         y="165.94019"
         x="90.219849"
         style="font-style:normal;font-weight:normal;font-size:3.36515331px;line-height:1.25;font-family:sans-serif;letter-spacing:0px;word-spacing:0px;fill:#98d1d9;fill-opacity:1;stroke:none;stroke-width:0.26458332"
         xml:space="preserve"><tspan
           style="font-style:normal;font-variant:normal;font-weight:normal;font-stretch:normal;font-size:2.01909208px;font-family:Lato;-inkscape-font-specification:Lato;fill:#98d1d9;fill-opacity:1;stroke-width:0.26458332"
           y="165.94019"
           x="90.219849"
           id="tspan869-2-14-7-4-4"
           sodipodi:role="line">Some Text</tspan></text>
    </g>
    <circle
       style="opacity:1;fill:#89bbbb;fill-opacity:0.62408758;fill-rule:evenodd;stroke:#000000;stroke-width:0.40000001;stroke-linecap:round;stroke-linejoin:round;stroke-miterlimit:4;stroke-dasharray:none;stroke-dashoffset:0;stroke-opacity:1"
       id="path815"
       cx="16.69191"
       cy="128.99474"
       r="5.5" />
    <path
       style="opacity:0.35;fill:none;stroke:#000000;stroke-width:0.46892411;stroke-linecap:butt;stroke-linejoin:miter;stroke-miterlimit:4;stroke-dasharray:none;stroke-opacity:1"
       d="m 22.489583,128.98958 h 15.875"
       id="path819"
       inkscape:connector-curvature="0"
       inkscape:path-effect="#path-effect821"
       inkscape:original-d="m 22.489583,128.98958 c 5.291931,-2.6e-4 10.583598,-2.6e-4 15.875,0"
       transform="matrix(0.98333331,0,0,1,0.11024386,0)" />
    <circle
       style="opacity:0.35;fill:#89bbbb;fill-opacity:0.62408758;fill-rule:evenodd;stroke:#000000;stroke-width:0.40000001;stroke-linecap:round;stroke-linejoin:round;stroke-miterlimit:4;stroke-dasharray:none;stroke-dashoffset:0;stroke-opacity:1"
       id="path815-7"
       cx="43.512543"
       cy="128.99474"
       r="5.5" />
    <path
       style="opacity:0.35;fill:none;stroke:#000000;stroke-width:0.46892411;stroke-linecap:butt;stroke-linejoin:miter;stroke-miterlimit:4;stroke-dasharray:none;stroke-opacity:1"
       d="m 22.489583,128.98958 h 15.875"
       id="path819-1"
       inkscape:connector-curvature="0"
       inkscape:path-effect="#path-effect821-2"
       inkscape:original-d="m 22.489583,128.98958 c 5.291931,-2.6e-4 10.583598,-2.6e-4 15.875,0"
       transform="matrix(0.9833333,0,0,1,27.097745,3.3333335e-6)" />
    <circle
       style="opacity:0.35;fill:#89bbbb;fill-opacity:0.62408758;fill-rule:evenodd;stroke:#000000;stroke-width:0.40000001;stroke-linecap:round;stroke-linejoin:round;stroke-miterlimit:4;stroke-dasharray:none;stroke-dashoffset:0;stroke-opacity:1"
       id="path815-7-7"
       cx="70.500046"
       cy="128.99474"
       r="5.5" />
    <text
       xml:space="preserve"
       style="font-style:normal;font-weight:normal;font-size:10.58333302px;line-height:1.25;font-family:sans-serif;letter-spacing:0px;word-spacing:0px;fill:#000000;fill-opacity:1;stroke:none;stroke-width:0.26458332"
       x="11.938411"
       y="120.78967"
       id="text871"><tspan
         sodipodi:role="line"
         id="tspan869"
         x="11.938411"
         y="120.78967"
         style="font-style:normal;font-variant:normal;font-weight:normal;font-stretch:normal;font-size:9.17222214px;font-family:Lato;-inkscape-font-specification:Lato;stroke-width:0.26458332">v1</tspan></text>
    <text
       xml:space="preserve"
       style="font-style:normal;font-weight:normal;font-size:10.58333302px;line-height:1.25;font-family:sans-serif;letter-spacing:0px;word-spacing:0px;opacity:0.35;fill:#000000;fill-opacity:1;stroke:none;stroke-width:0.26458332;"
       x="38.759045"
       y="120.81947"
       id="text871-7"><tspan
         sodipodi:role="line"
         id="tspan869-0"
         x="38.759045"
         y="120.81947"
         style="font-style:normal;font-variant:normal;font-weight:normal;font-stretch:normal;font-size:9.17222214px;font-family:Lato;-inkscape-font-specification:Lato;fill:#00b9ff;fill-opacity:1;stroke-width:0.26458332;">v2</tspan></text>
    <text
       xml:space="preserve"
       style="font-style:normal;font-weight:normal;font-size:10.58333302px;line-height:1.25;font-family:sans-serif;letter-spacing:0px;word-spacing:0px;opacity:0.35;fill:#000000;fill-opacity:1;stroke:none;stroke-width:0.26458332"
       x="65.673172"
       y="120.78278"
       id="text871-7-9"><tspan
         sodipodi:role="line"
         id="tspan869-0-4"
         x="65.673172"
         y="120.78278"
         style="font-style:normal;font-variant:normal;font-weight:normal;font-stretch:normal;font-size:9.17222214px;font-family:Lato;-inkscape-font-specification:Lato;fill:#8e0091;fill-opacity:1;stroke-width:0.26458332">v3</tspan></text>
    <path
       style="fill:none;stroke:#000000;stroke-width:0.26499999;stroke-linecap:butt;stroke-linejoin:miter;stroke-miterlimit:4;stroke-dasharray:none;stroke-opacity:1;marker-end:url(#Arrow2Lend)"
       d="m 12.503815,133.6553 -33.072917,16.34747"
       id="path927"
       inkscape:connector-curvature="0"
       inkscape:path-effect="#path-effect929"
       inkscape:original-d="m 12.503815,133.6553 c -6.3938328,6.04736 -26.678555,10.29959 -33.072917,16.34747"
       sodipodi:nodetypes="cc" />
    <g
       id="g10008"
       transform="matrix(0.30228262,0,0,0.33446571,-3.4485834,101.441)"
       style="stroke-width:3.14497805">
      <rect
         transform="matrix(1,0,0,2.1968317,-1.4552083,-193.95804)"
         y="157.5623"
         x="-36.538593"
         height="20.221727"
         width="33.923363"
         id="rect1527"
         style="opacity:1;fill:#ffffff;fill-opacity:1;fill-rule:evenodd;stroke:none;stroke-width:0.56229609;stroke-linecap:round;stroke-linejoin:round;stroke-miterlimit:4;stroke-dasharray:none;stroke-dashoffset:0;stroke-opacity:1;filter:url(#filter1671)" />
      <text
         id="text871-9"
         y="160.02361"
         x="-35.433464"
         style="font-style:normal;font-weight:normal;font-size:10.58333302px;line-height:1.25;font-family:sans-serif;letter-spacing:0px;word-spacing:0px;fill:#000000;fill-opacity:1;stroke:none;stroke-width:0.83210874"
         xml:space="preserve"><tspan
           style="font-style:normal;font-variant:normal;font-weight:normal;font-stretch:normal;font-size:6.35000038px;font-family:Lato;-inkscape-font-specification:Lato;stroke-width:0.83210874"
           y="160.02361"
           x="-35.433464"
           id="tspan869-2"
           sodipodi:role="line">Title</tspan></text>
    </g>
    <g
       id="g1035"
       transform="matrix(1.0593159,0,0,1.0593159,26.729091,268.90817)"
       style="stroke-width:0.94400549">
      <rect
         id="rect991"
         ry="0.62442023"
         rx="0.62442023"
         y="-105.40919"
         x="-55.88504"
         height="8.4666662"
         width="13.229166"
         style="opacity:0.2;stroke-width:0.24976809" />
      <path
         id="path993"
         d="m -55.885042,-99.985232 c 0,0.366448 0.295011,0.661459 0.661459,0.661459 h 11.906249 c 0.366448,0 0.661459,-0.295011 0.661459,-0.661459 v -7.143748 c 0,-0.36645 -0.295011,-0.66146 -0.661459,-0.66146 h -6.746874 v -0.66146 c 0,-0.36645 -0.295011,-0.66146 -0.661459,-0.66146 h -4.497916 c -0.366448,0 -0.661459,0.29501 -0.661459,0.66146"
         style="fill:#12806a;stroke-width:0.24976809"
         inkscape:connector-curvature="0" />
      <rect
         id="rect995"
         ry="0.62442023"
         rx="0.62442023"
         y="-105.93835"
         x="-55.88504"
         height="8.4666662"
         width="13.229166"
         style="opacity:0.2;stroke-width:0.24976809" />
      <rect
         id="rect997"
         ry="0.62442023"
         rx="0.62442023"
         y="-106.99669"
         x="-55.091293"
         height="5.2916665"
         width="11.641666"
         style="fill:#e4e4e4;stroke-width:0.24976809" />
      <rect
         id="rect999"
         ry="0.62442023"
         rx="0.62442023"
         y="-105.67377"
         x="-55.88504"
         height="8.4666662"
         width="13.229166"
         style="fill:#16a085;stroke-width:0.24976809" />
      <path
         id="path1001"
         d="m -55.223583,-109.11336 c -0.366448,0 -0.661459,0.29501 -0.661459,0.66146 v 0.26458 c 0,-0.36644 0.295011,-0.66145 0.661459,-0.66145 h 4.497916 c 0.366448,0 0.661459,0.29501 0.661459,0.66145 v -0.26458 c 0,-0.36645 -0.295011,-0.66146 -0.661459,-0.66146 z m 5.159375,1.32292 v 0.26458 h 6.746874 c 0.367771,0 0.661459,0.29501 0.661459,0.66146 v -0.26458 c 0,-0.36645 -0.293688,-0.66146 -0.661459,-0.66146 z"
         style="opacity:0.1;fill:#ffffff;stroke-width:0.24976809"
         inkscape:connector-curvature="0" />
    </g>
    <image
       y="170.17511"
       x="-32.530716"
       id="image957"
       xlink:href="data:image/png;base64,iVBORw0KGgoAAAANSUhEUgAAAgAAAAIACAYAAAD0eNT6AAAACXBIWXMAAAsTAAALEwEAmpwYAAAK T2lDQ1BQaG90b3Nob3AgSUNDIHByb2ZpbGUAAHjanVNnVFPpFj333vRCS4iAlEtvUhUIIFJCi4AU kSYqIQkQSoghodkVUcERRUUEG8igiAOOjoCMFVEsDIoK2AfkIaKOg6OIisr74Xuja9a89+bN/rXX Pues852zzwfACAyWSDNRNYAMqUIeEeCDx8TG4eQuQIEKJHAAEAizZCFz/SMBAPh+PDwrIsAHvgAB eNMLCADATZvAMByH/w/qQplcAYCEAcB0kThLCIAUAEB6jkKmAEBGAYCdmCZTAKAEAGDLY2LjAFAt AGAnf+bTAICd+Jl7AQBblCEVAaCRACATZYhEAGg7AKzPVopFAFgwABRmS8Q5ANgtADBJV2ZIALC3 AMDOEAuyAAgMADBRiIUpAAR7AGDIIyN4AISZABRG8lc88SuuEOcqAAB4mbI8uSQ5RYFbCC1xB1dX Lh4ozkkXKxQ2YQJhmkAuwnmZGTKBNA/g88wAAKCRFRHgg/P9eM4Ors7ONo62Dl8t6r8G/yJiYuP+ 5c+rcEAAAOF0ftH+LC+zGoA7BoBt/qIl7gRoXgugdfeLZrIPQLUAoOnaV/Nw+H48PEWhkLnZ2eXk 5NhKxEJbYcpXff5nwl/AV/1s+X48/Pf14L7iJIEyXYFHBPjgwsz0TKUcz5IJhGLc5o9H/LcL//wd 0yLESWK5WCoU41EScY5EmozzMqUiiUKSKcUl0v9k4t8s+wM+3zUAsGo+AXuRLahdYwP2SycQWHTA 4vcAAPK7b8HUKAgDgGiD4c93/+8//UegJQCAZkmScQAAXkQkLlTKsz/HCAAARKCBKrBBG/TBGCzA BhzBBdzBC/xgNoRCJMTCQhBCCmSAHHJgKayCQiiGzbAdKmAv1EAdNMBRaIaTcA4uwlW4Dj1wD/ph CJ7BKLyBCQRByAgTYSHaiAFiilgjjggXmYX4IcFIBBKLJCDJiBRRIkuRNUgxUopUIFVIHfI9cgI5 h1xGupE7yAAygvyGvEcxlIGyUT3UDLVDuag3GoRGogvQZHQxmo8WoJvQcrQaPYw2oefQq2gP2o8+ Q8cwwOgYBzPEbDAuxsNCsTgsCZNjy7EirAyrxhqwVqwDu4n1Y8+xdwQSgUXACTYEd0IgYR5BSFhM WE7YSKggHCQ0EdoJNwkDhFHCJyKTqEu0JroR+cQYYjIxh1hILCPWEo8TLxB7iEPENyQSiUMyJ7mQ AkmxpFTSEtJG0m5SI+ksqZs0SBojk8naZGuyBzmULCAryIXkneTD5DPkG+Qh8lsKnWJAcaT4U+Io UspqShnlEOU05QZlmDJBVaOaUt2ooVQRNY9aQq2htlKvUYeoEzR1mjnNgxZJS6WtopXTGmgXaPdp r+h0uhHdlR5Ol9BX0svpR+iX6AP0dwwNhhWDx4hnKBmbGAcYZxl3GK+YTKYZ04sZx1QwNzHrmOeZ D5lvVVgqtip8FZHKCpVKlSaVGyovVKmqpqreqgtV81XLVI+pXlN9rkZVM1PjqQnUlqtVqp1Q61Mb U2epO6iHqmeob1Q/pH5Z/YkGWcNMw09DpFGgsV/jvMYgC2MZs3gsIWsNq4Z1gTXEJrHN2Xx2KruY /R27iz2qqaE5QzNKM1ezUvOUZj8H45hx+Jx0TgnnKKeX836K3hTvKeIpG6Y0TLkxZVxrqpaXllir SKtRq0frvTau7aedpr1Fu1n7gQ5Bx0onXCdHZ4/OBZ3nU9lT3acKpxZNPTr1ri6qa6UbobtEd79u p+6Ynr5egJ5Mb6feeb3n+hx9L/1U/W36p/VHDFgGswwkBtsMzhg8xTVxbzwdL8fb8VFDXcNAQ6Vh lWGX4YSRudE8o9VGjUYPjGnGXOMk423GbcajJgYmISZLTepN7ppSTbmmKaY7TDtMx83MzaLN1pk1 mz0x1zLnm+eb15vft2BaeFostqi2uGVJsuRaplnutrxuhVo5WaVYVVpds0atna0l1rutu6cRp7lO k06rntZnw7Dxtsm2qbcZsOXYBtuutm22fWFnYhdnt8Wuw+6TvZN9un2N/T0HDYfZDqsdWh1+c7Ry FDpWOt6azpzuP33F9JbpL2dYzxDP2DPjthPLKcRpnVOb00dnF2e5c4PziIuJS4LLLpc+Lpsbxt3I veRKdPVxXeF60vWdm7Obwu2o26/uNu5p7ofcn8w0nymeWTNz0MPIQ+BR5dE/C5+VMGvfrH5PQ0+B Z7XnIy9jL5FXrdewt6V3qvdh7xc+9j5yn+M+4zw33jLeWV/MN8C3yLfLT8Nvnl+F30N/I/9k/3r/ 0QCngCUBZwOJgUGBWwL7+Hp8Ib+OPzrbZfay2e1BjKC5QRVBj4KtguXBrSFoyOyQrSH355jOkc5p DoVQfujW0Adh5mGLw34MJ4WHhVeGP45wiFga0TGXNXfR3ENz30T6RJZE3ptnMU85ry1KNSo+qi5q PNo3ujS6P8YuZlnM1VidWElsSxw5LiquNm5svt/87fOH4p3iC+N7F5gvyF1weaHOwvSFpxapLhIs OpZATIhOOJTwQRAqqBaMJfITdyWOCnnCHcJnIi/RNtGI2ENcKh5O8kgqTXqS7JG8NXkkxTOlLOW5 hCepkLxMDUzdmzqeFpp2IG0yPTq9MYOSkZBxQqohTZO2Z+pn5mZ2y6xlhbL+xW6Lty8elQfJa7OQ rAVZLQq2QqboVFoo1yoHsmdlV2a/zYnKOZarnivN7cyzytuQN5zvn//tEsIS4ZK2pYZLVy0dWOa9 rGo5sjxxedsK4xUFK4ZWBqw8uIq2Km3VT6vtV5eufr0mek1rgV7ByoLBtQFr6wtVCuWFfevc1+1d T1gvWd+1YfqGnRs+FYmKrhTbF5cVf9go3HjlG4dvyr+Z3JS0qavEuWTPZtJm6ebeLZ5bDpaql+aX Dm4N2dq0Dd9WtO319kXbL5fNKNu7g7ZDuaO/PLi8ZafJzs07P1SkVPRU+lQ27tLdtWHX+G7R7ht7 vPY07NXbW7z3/T7JvttVAVVN1WbVZftJ+7P3P66Jqun4lvttXa1ObXHtxwPSA/0HIw6217nU1R3S PVRSj9Yr60cOxx++/p3vdy0NNg1VjZzG4iNwRHnk6fcJ3/ceDTradox7rOEH0x92HWcdL2pCmvKa RptTmvtbYlu6T8w+0dbq3nr8R9sfD5w0PFl5SvNUyWna6YLTk2fyz4ydlZ19fi753GDborZ752PO 32oPb++6EHTh0kX/i+c7vDvOXPK4dPKy2+UTV7hXmq86X23qdOo8/pPTT8e7nLuarrlca7nuer21 e2b36RueN87d9L158Rb/1tWeOT3dvfN6b/fF9/XfFt1+cif9zsu72Xcn7q28T7xf9EDtQdlD3YfV P1v+3Njv3H9qwHeg89HcR/cGhYPP/pH1jw9DBY+Zj8uGDYbrnjg+OTniP3L96fynQ89kzyaeF/6i /suuFxYvfvjV69fO0ZjRoZfyl5O/bXyl/erA6xmv28bCxh6+yXgzMV70VvvtwXfcdx3vo98PT+R8 IH8o/2j5sfVT0Kf7kxmTk/8EA5jz/GMzLdsAAAAgY0hSTQAAeiUAAICDAAD5/wAAgOkAAHUwAADq YAAAOpgAABdvkl/FRgAADoBJREFUeNrs3dtuWzkSBdBDQf//y8xDEMAx5IukI5FVe6336WmTddmi 3MmYcx4AQJaLIwAAAQAAEAAAAAEAABAAAAABAAAQAAAAAQAAEAAAAAEAABAAAAABAAAQAAAAAQAA EAAAAAEAABAAAAABAAAiXR0B9DHGmK/85885h1OGJvNizukUIHCZv4vQAAIA0HDBCwggAACWvHAA AgBY9ggFIACAZY9QAAIAWPYIBSAAgIWPQAACAFj4CAQgAICljzAAAgBY+AgEIACApY8wAAIAlj4I AyAAYOmDMAACAJY+CAMgAGDxgyCAAACWPggDCABg6YMwgAAAFj8IAggAYPGDIIAAAJY+CAMIAGDx gyCAAAAWPwgCCABY/IAggACAxQ8IAggAWPyAIIAAgMUPCAIIAFj8gCCAAIDFD4IACABY/CAIgACA xQ+CANxycQRY/qBX8QIAhgl4DUAAwOIHBAE68hUAlj/oabwAYEgAXgMQALD4AUGAlnwFYPlb/qD3 8QKA5ge8BuAFAMsfMBPwAoAmB7wGIABg+WNAqzE1hgCAoYzhqxbVIgIABi4Gq1pVqwgAGKgGKGpY DSMAYGgalKhv9Y0AgOFoIKLm1TwCAIag4Yde0AsIABh4Bh16Q28gAGDAGWroF/2CAGCYYYihf/QP AoDBhaGFntJTCAAGFQYUekyPIQAYTIYS6Df9hgBgEBlCoAf1oACAwWPogH7UjwIAho0hA/pTfwoA GC4GC+hVvSoAYKAYJqBv9a0AgCFigKCH9bAeFgAwOAwN9DP6WQDAsDAo0NvobQEAA8JwQJ+jzwUA QwEDAT2v5xEADAFDAMwAMwABQONrejAPzAMEAM2u0cFsMBt43sURaHANDnrCrPQCgII25MC8MC8E ADSzRgazw+zoyFcAGlgDg94xQ70AoHANLzBPzBMvAGhWzQp6ykz1AoBCNaTAjDFjBAA0pqYE88a8 KcpXAGhG0HsIAEjjBhDoQbM24ix9BaAgDR0wh8whLwBoOk0HetPs9QKAArT41aUaUANmkwCABkO9 qRk1o94EAI2lsVBb6kk9qS0BQENpKNSRWlNr6kgA0EiaCAtfDapBtSMAaB7No15Ql+pSvQgAmkbT qBHUqlpVI+tcHQGaxSCtfPZq9/5eV7t4ATDkDVD1oJbVsnoQANAgWPzqWl2rBQFAY/jvsdWA5lDr al0NtOV3AAxELP2YO1X7X88Ete8FgOZLwAC09NELZh8CgAZw1wgC+sIMFABQ+O4ZQQCzUABQ8Are HSMI6Bd33NbFERhmCYPM8ke9mB14AYhJuukNbIijj/SRexUAFLc7BT2lp9zpB74CUNSthpTlj/oy U/ACEJlqExvV0kev6TX36AVAIbtHUHtmjHv0AmD5u0PQf/rPHXoBMHxaDB7LH3Vp5iAAxCfXtOWv ZVGjZo+7O+lnTvoKwPJ3b6A/9ad7C30BUKSGC6hds4igF4BOzZjQcBY/lqSedV9eABSmQQJq2mxy Xye7ak00Hbyvvj2Z4wXAUvHp3/JH0PUK4J4EABdo+YMQYFa5JwGAgOXvD/UhPQT4W/YQACS3yOWv /cBftet+BAAsfxACzDDeWXcd/xyADs3kb90CwV/vuxcvAJaMewG9gnsRAHwC0Dhg2ZhpCACtmsby B4QAdyIA+OSvWUAIMON4TX11+SXA6o1i+bOy3tyX+WA+5N1HiwDg6d99WA7u2T2bEe5DAFBI7sLw VwfqQI24i+4BQBG5B0NejagRNeEe7uevA8ZgN0SW/Jzq5rme8wt1RL8ASI/uwL0LkmrJvbuDx/jP ABWNgf3GO7f8nY8eFIi9AAQXvuUv6KHO1JmZvprfAcBQNgxKnKW6+74n1R0RLwCSovN3rxaeUzBb nP9z/A4ABu+TTW/5O3e9iRcARd46oRswPvGrTbXpLvucvRcAhWHA+uTpXoQhszLQRWHj3C0Y96Rn yTt3LwASrUFiobg3y8jMTKyRKr8DULWYLX8DCLWsls19LwBoPJ8cca96GQFACnTe7gt3rKfN0DX8 SYBYChZ/5H37ZEy67X8HQHJ13u4INW8uOe/z+R0ATWYQol+FHXcU6KJYsfwRAoQA8s7aC4BBEnU3 7gf1YbYiABD0icDwQK14BaBIAKhYoBUHh+UPQoB7yTxnLwA++bce4pY/6sdLAIUCgGSK+0At4RXA CwBCloGNmjILOPvud/uDgHz6d8aGNPpH/9gVXgDA8ketgQBgGPj0YiCj5swGfd8uAPguyvkaAqg9 M8IM9gJgAOD8UYM4fwEAyV7joxbNCtoFAN8/OVvLHzVpZnQ/+53O1gsABi2oTbwASEQ+/Tt3UKNe ARLO1gsAGhzUKl4A8OnfmYOa9QqQYPkfBez537lq6hp37y70ofPuda5XLWoAOm/L5Zn/P/f0fQ37 z+qc964EAIvB8nevp/57ubt+S2mMMd2rAGBRgf4QCKBBsFr6OwB+wcTS8Ok/KxS7W/fnrPc5U18B oBkMqyU/a9pd+36a7fpx1QuAhGaRpC9/y8C9uy/nvPJMvQCAwbTFefhdAXgvfxCQpeJTxRvvyPJ3 PtVrXQ0LADEF5FOJM7bYnJead8Ydd6IXAJ/+NalF5vzUvlcALwBI6RiQzhIzXADAcNScPrU6Vz0g mAkAigaDz+J3znqBHrvRC0Dhpqw6CDsufx3jzBN7osI9CFgCAFhEzh5YFQA0rLPsksY9+bsHvWGu Vz9LLwCNlxQGnjsBM10AQBNaNEKAHgEBwKAz2Cx/vaFXnLsAoEAkcAw4d0Vj/hZDLwBoPAtFCNAz IAAYbDhvd4fzFgDAJxkDzVLSOwgAeU2o4bD83SU+kKTUrBcAg0ygsjD0jh7SO14AwKJwCu4WBIAg uydtn/6dMZl37BXAbBIAwGLAXUOdAKDZ8vjEgjv3qZX9a9QLgEIAMLO8APjEik//WFJ6y5wSAMAC QA2AAIAB1SVVG/zoMecqACgAAIgLUfEvAL4L0lSgJsx+LwCgmUCvIQDgU4kzRW3gTAUAMIxQIyAA aCT+8iQJeo56u/SqidBE6t1Z/f/zmw05PZFc71clYGEh3P70v1WPCFQCAJy2aISpOvfw+Z/f/Uwr LK30T68IACCALfz/tYCgLv8VAD79Fz37Hc5/l3+P1NrxtI4A0KxxfKqi2sLtHAToPdOS6/aSdtkY Oha/f0+zDHXoKwAosfz9OwMCAAZ80Ce3you0SwjYvZaELR7lvwIAQ/3lP4endPACAAR+ovMpFQQA fuCTUvYZdl6UlX82fekMBQCDCOfnXP2MztX5CQCAAeRnBQHgOA7PPKyl/lBbqD8vAOATsZ8ZEADA IvSzAwLAhvzlIxagM6DzWfoaRQAAwwU1BgIA+LTmLAABwLABwG4QAMCgcSaAAAA3+W4WtQYCAPik 62wAAQADGvQoCABgODsjQAAAAAHgSX45BgBe4+wd6wWg6cU6O1Bzzg4BABbz3bazAgEAABAAAAAB AAAQAAAAAQAK8kttzgwEAABAAMAnMkCvIgAAAAIAACAAAAACAAAgAAAAAgAAIAAAAAIAAAgAAIAA AAAIAACAAAAACAAAgAAAAAgAAIAAAAAIAACAAAAACAAAgAAAAAgAAIAAAAAIAACAAAAACAAAgAAA AAIAACAAAAACAAAgAAAAAgAAIAAAAAIAACAAAAACAAAgAAAAAgAAIAAAAAIAACAAAAACAAAgAAAA AgAACAAAgAAAAAgAAIAAAAAIAACAAAAACAAAgAAAAAgAAIAAAAAIAACAAAAACAAAgAAAAAgAAIAA AAAIAAAgAAAAAgAAIAAAAAIAACAAAAACAAAgAAAAAgAAIAAAAAIAACAAAAACAAAgAAAAAgAAIAAA AAIAACAAAIAAAAAIAACAAAAACAAAQHljzukUAMALAAAgAAAAAgAAIAAAAAIAACAAAAACAAAgAAAA AgAAIAAAAAIAACAAAAACAAAgAAAAAgAAIAAAgADgCABAAAAAAlzP/IeNMaYjBYDXmHMOLwAAgAAA ACwIAJ7/AeC1zty1XgAAwAsAACAAAAACwFd8/w8A73HWzvUCAABeAAAAAQAAEABu8f0/ALzXGbvX CwAAeAEAAAQAAEAA+Mz3/wCwxrM72AsAAHgBAAAEAABAAPjI9/8AsNYzu9gLAAB4AQAABAAAQAD4 x/f/ALCHR3eyFwAA8AIAAAgAAIAAcBy+/weA3Tyym70AAIAXAABAAAAABADf/wPAnu7d0V4AAMAL AAAgAAAA2QHA9/8AsLd7drUXAADwAgAACAAAQG4A8P0/ANTw253tBQAAvAAAAAIAAJAZAHz/DwC1 /GZ3ewEAAC8AAIAAAADkBQDf/wNATT/tcC8AAOAFAAAQAACArADg+38AqO27Xe4FAAC8AAAAAgAA kBMAfP8PAD18tdO9AACAFwAAQAAAADICgO//AaCXW7vdCwAAeAEAAAQAAKB/APD9PwD09HnHewEA gPQXAABAAAAAugcA3/8DQG8fd70XAABIfgEAAAQAAKB7APD9PwBk+LfzvQAAQOoLAAAgAAAAzY3j OHz/DwBeAAAAAQAAEAAAAAEAAChozOl3AAHACwAAIAAAAAIAACAAAAACAAAgAAAAAgAAIAAAAAIA ACAAAAACAAAgAAAAAgAAIAAAAAIAACAAAAACAAAEGsdxTMcAAF4AAAABAAAQAAAAAQAAEAAAAAEA ABAAAAABAAAQAAAAAQAAEAAAAAEAABAAAAABAAAQAAAAAQAABAAAQAAAAAQAAEAAAAAEAABAAAAA BAAAQAAAAAQAAEAAAAAEAABAAAAABAAAQAAAAAQAAEAAAAAEAABAAAAAAQAAEAAAAAEAABAAAAAB AAAQAACAfY05p1MAAC8AAIAAAAAIAACAAAAACAAAgAAAAAgAAIAAAAAIAACAAAAACAAAgAAAAAgA AIAAAAAIAACAAAAAAoAjAAABAAAI8GcAmjiUaO40jPEAAAAASUVORK5CYII= "
       preserveAspectRatio="none"
       height="14.133654"
       width="14.133654"
       style="stroke-width:12.77958488" />
    <g
       id="g10008-1"
       transform="matrix(0.30228262,0,0,0.33446572,-3.4485834,118.91389)"
       style="stroke-width:3.14497805">
      <rect
         transform="matrix(1,0,0,2.1968317,-1.4552083,-193.95804)"
         y="157.5623"
         x="-36.538593"
         height="20.221727"
         width="33.923363"
         id="rect1527-3"
         style="opacity:1;fill:#ffffff;fill-opacity:1;fill-rule:evenodd;stroke:none;stroke-width:0.56229609;stroke-linecap:round;stroke-linejoin:round;stroke-miterlimit:4;stroke-dasharray:none;stroke-dashoffset:0;stroke-opacity:1;filter:url(#filter1671-40)" />
      <text
         id="text871-9-1"
         y="160.02361"
         x="-35.433464"
         style="font-style:normal;font-weight:normal;font-size:10.58333302px;line-height:1.25;font-family:sans-serif;letter-spacing:0px;word-spacing:0px;fill:#000000;fill-opacity:1;stroke:none;stroke-width:0.83210874"
         xml:space="preserve"><tspan
           style="font-style:normal;font-variant:normal;font-weight:normal;font-stretch:normal;font-size:6.35000038px;font-family:Lato;-inkscape-font-specification:Lato;stroke-width:0.83210874"
           y="160.02361"
           x="-35.433464"
           id="tspan869-2-1"
           sodipodi:role="line">Title</tspan></text>
    </g>
    <g
       id="g10008-1-6"
       transform="matrix(0.30228262,0,0,0.33446572,-3.4485834,136.38679)"
       style="stroke-width:3.14497805">
      <rect
         transform="matrix(1,0,0,2.1968317,-1.4552083,-193.95804)"
         y="157.5623"
         x="-36.538593"
         height="20.221727"
         width="33.923363"
         id="rect1527-3-7"
         style="opacity:1;fill:#ffffff;fill-opacity:1;fill-rule:evenodd;stroke:none;stroke-width:0.56229609;stroke-linecap:round;stroke-linejoin:round;stroke-miterlimit:4;stroke-dasharray:none;stroke-dashoffset:0;stroke-opacity:1;filter:url(#filter1671-40-4)" />
      <text
         id="text871-9-1-5"
         y="160.02361"
         x="-35.433464"
         style="font-style:normal;font-weight:normal;font-size:10.58333302px;line-height:1.25;font-family:sans-serif;letter-spacing:0px;word-spacing:0px;fill:#000000;fill-opacity:1;stroke:none;stroke-width:0.83210874"
         xml:space="preserve"><tspan
           style="font-style:normal;font-variant:normal;font-weight:normal;font-stretch:normal;font-size:6.35000038px;font-family:Lato;-inkscape-font-specification:Lato;stroke-width:0.83210874"
           y="160.02361"
           x="-35.433464"
           id="tspan869-2-1-6"
           sodipodi:role="line">Title</tspan></text>
    </g>
    <g
       id="g989"
       transform="matrix(0.29463344,0,0,0.29463344,-34.892159,184.99193)"
       style="stroke-width:0.89800853">
      <rect
         id="rect960"
         ry="2.2450211"
         rx="2.2450211"
         y="24"
         x="7"
         height="32"
         width="50"
         style="opacity:0.2;stroke-width:0.89800853" />
      <path
         id="path962"
         d="M 7,44.5 C 7,45.885 8.115,47 9.5,47 h 45 c 1.385,0 2.5,-1.115 2.5,-2.5 v -27 C 57,16.115 55.885,15 54.5,15 H 29 V 12.5 C 29,11.115 27.885,10 26.5,10 H 9.5 C 8.115,10 7,11.115 7,12.5"
         style="fill:#bf4b4b;stroke-width:0.89800853"
         inkscape:connector-curvature="0" />
      <rect
         id="rect964"
         ry="2.2450211"
         rx="2.2450211"
         y="22"
         x="7"
         height="32"
         width="50"
         style="opacity:0.2;stroke-width:0.89800853" />
      <rect
         id="rect966"
         ry="2.2450211"
         rx="2.2450211"
         y="18"
         x="10"
         height="20"
         width="44"
         style="fill:#e4e4e4;stroke-width:0.89800853" />
      <rect
         id="rect968"
         ry="2.2450211"
         rx="2.2450211"
         y="23"
         x="7"
         height="32"
         width="50"
         style="fill:#e25252;stroke-width:0.89800853" />
      <path
         id="path970-9"
         d="M 9.5,10 C 8.115,10 7,11.115 7,12.5 v 1 C 7,12.115 8.115,11 9.5,11 h 17 c 1.385,0 2.5,1.115 2.5,2.5 v -1 C 29,11.115 27.885,10 26.5,10 Z M 29,15 v 1 h 25.5 c 1.39,0 2.5,1.115 2.5,2.5 v -1 C 57,16.115 55.89,15 54.5,15 Z"
         style="opacity:0.1;fill:#ffffff;stroke-width:0.89800853"
         inkscape:connector-curvature="0" />
      <path
         id="path972"
         d="m 26.412,28 -1.414,1.414 2.304,2.304 a 2.9989,2.9989 0 0 0 -0.297,1.289 2.9989,2.9989 0 0 0 2,2.823 v 8.348 A 2.9989,2.9989 0 0 0 27.007,47 2.9989,2.9989 0 0 0 30.006,49.999 2.9989,2.9989 0 0 0 33.005,47 a 2.9989,2.9989 0 0 0 -2,-2.823 v -8.348 a 2.9989,2.9989 0 0 0 0.289,-0.121 l 4.006,4.005 a 2.9989,2.9989 0 0 0 -0.296,1.289 2.9989,2.9989 0 0 0 2.999,2.999 2.9989,2.9989 0 0 0 2.998,-2.999 2.9989,2.9989 0 0 0 -2.998,-2.998 2.9989,2.9989 0 0 0 -1.289,0.296 l -4.006,-4.005 a 2.9989,2.9989 0 0 0 0.297,-1.289 2.9989,2.9989 0 0 0 -2.999,-2.999 2.9989,2.9989 0 0 0 -1.289,0.297 l -2.303,-2.302 z"
         style="fill:#4f1d1d;stroke-width:0.89800853"
         inkscape:connector-curvature="0" />
    </g>
    <g
       id="g10220"
       transform="matrix(0.51405541,0,0,0.51405541,-16.653426,71.609674)"
       style="stroke-width:1.9453156">
      <circle
         r="5.5"
         cy="157.39931"
         cx="23.342285"
         id="path815-0"
         style="opacity:1;fill:#89bbbb;fill-opacity:0.62408758;fill-rule:evenodd;stroke:#000000;stroke-width:0.77812624;stroke-linecap:round;stroke-linejoin:round;stroke-miterlimit:4;stroke-dasharray:none;stroke-dashoffset:0;stroke-opacity:1" />
      <text
         id="text871-5"
         y="159.82449"
         x="19.173391"
         style="font-style:normal;font-weight:normal;font-size:8.76107788px;line-height:1.25;font-family:sans-serif;letter-spacing:0px;word-spacing:0px;fill:#000000;fill-opacity:1;stroke:none;stroke-width:0.51469809"
         xml:space="preserve"><tspan
           style="font-style:normal;font-variant:normal;font-weight:normal;font-stretch:normal;font-size:7.59293461px;font-family:Lato;-inkscape-font-specification:Lato;stroke-width:0.51469809"
           y="159.82449"
           x="19.173391"
           id="tspan869-5"
           sodipodi:role="line">v1</tspan></text>
    </g>
    <g
       id="g10220-2"
       transform="matrix(0.51405541,0,0,0.51405541,-16.653426,89.932504)"
       style="stroke-width:1.9453156">
      <circle
         r="5.5"
         cy="157.39931"
         cx="23.342285"
         id="path815-0-8"
         style="opacity:1;fill:#89bbbb;fill-opacity:0.62408758;fill-rule:evenodd;stroke:#000000;stroke-width:0.77812624;stroke-linecap:round;stroke-linejoin:round;stroke-miterlimit:4;stroke-dasharray:none;stroke-dashoffset:0;stroke-opacity:1" />
      <text
         id="text871-5-3"
         y="159.82449"
         x="19.173391"
         style="font-style:normal;font-weight:normal;font-size:8.76107788px;line-height:1.25;font-family:sans-serif;letter-spacing:0px;word-spacing:0px;fill:#000000;fill-opacity:1;stroke:none;stroke-width:0.51469809"
         xml:space="preserve"><tspan
           style="font-style:normal;font-variant:normal;font-weight:normal;font-stretch:normal;font-size:7.59293461px;font-family:Lato;-inkscape-font-specification:Lato;stroke-width:0.51469809"
           y="159.82449"
           x="19.173391"
           id="tspan869-5-8"
           sodipodi:role="line">v1</tspan></text>
    </g>
    <g
       id="g10220-2-0"
       transform="matrix(0.51405541,0,0,0.51405541,-16.653426,107.10457)"
       style="stroke-width:1.9453156">
      <circle
         r="5.5"
         cy="157.39931"
         cx="23.342285"
         id="path815-0-8-4"
         style="opacity:1;fill:#89bbbb;fill-opacity:0.62408758;fill-rule:evenodd;stroke:#000000;stroke-width:0.77812624;stroke-linecap:round;stroke-linejoin:round;stroke-miterlimit:4;stroke-dasharray:none;stroke-dashoffset:0;stroke-opacity:1" />
      <text
         id="text871-5-3-0"
         y="159.82449"
         x="19.173391"
         style="font-style:normal;font-weight:normal;font-size:8.76107788px;line-height:1.25;font-family:sans-serif;letter-spacing:0px;word-spacing:0px;fill:#000000;fill-opacity:1;stroke:none;stroke-width:0.51469809"
         xml:space="preserve"><tspan
           style="font-style:normal;font-variant:normal;font-weight:normal;font-stretch:normal;font-size:7.59293461px;font-family:Lato;-inkscape-font-specification:Lato;stroke-width:0.51469809"
           y="159.82449"
           x="19.173391"
           id="tspan869-5-8-9"
           sodipodi:role="line">v1</tspan></text>
    </g>
    <path
       style="fill:none;stroke:#000000;stroke-width:0.23970151;stroke-linecap:butt;stroke-linejoin:miter;stroke-miterlimit:4;stroke-dasharray:none;stroke-opacity:1;marker-end:url(#marker10575)"
       d="M -2.922335e-7,175.29168 H 11.90625"
       id="path10270"
       inkscape:connector-curvature="0"
       inkscape:path-effect="#path-effect10272"
       inkscape:original-d="M -2.922335e-7,175.29168 C 3.9690142,175.29142 7.9377642,175.29142 11.90625,175.29168"
       transform="matrix(1.2222222,0,0,1,6.4940771e-8,-14.552079)" />
    <rect
       style="opacity:1;fill:#ffffff;fill-opacity:1;fill-rule:evenodd;stroke:none;stroke-width:0.56229609;stroke-linecap:round;stroke-linejoin:round;stroke-miterlimit:4;stroke-dasharray:none;stroke-dashoffset:0;stroke-opacity:1;filter:url(#filter1671-0)"
       id="rect1527-4"
       width="33.923363"
       height="20.221727"
       x="-36.538593"
       y="157.5623"
       transform="matrix(0.30228262,0,0,0.7347649,45.836403,36.667025)" />
    <text
       xml:space="preserve"
       style="font-style:normal;font-weight:normal;font-size:3.36515331px;line-height:1.25;font-family:sans-serif;letter-spacing:0px;word-spacing:0px;fill:#000000;fill-opacity:1;stroke:none;stroke-width:0.26458332"
       x="37.410759"
       y="147.41289"
       id="text871-9-3"
       transform="scale(0.95067217,1.0518873)"><tspan
         sodipodi:role="line"
         id="tspan869-2-14"
         x="37.410759"
         y="147.41289"
         style="font-style:normal;font-variant:normal;font-weight:normal;font-stretch:normal;font-size:2.01909208px;font-family:Lato;-inkscape-font-specification:Lato;stroke-width:0.26458332">Title</tspan></text>
    <g
       id="g1035-6"
       transform="matrix(1.0593159,0,0,1.0593159,76.453964,269.00652)"
       style="stroke-width:0.94400549">
      <rect
         id="rect991-9"
         ry="0.62442023"
         rx="0.62442023"
         y="-105.40919"
         x="-55.88504"
         height="8.4666662"
         width="13.229166"
         style="opacity:0.2;stroke-width:0.24976809" />
      <path
         id="path993-4"
         d="m -55.885042,-99.985232 c 0,0.366448 0.295011,0.661459 0.661459,0.661459 h 11.906249 c 0.366448,0 0.661459,-0.295011 0.661459,-0.661459 v -7.143748 c 0,-0.36645 -0.295011,-0.66146 -0.661459,-0.66146 h -6.746874 v -0.66146 c 0,-0.36645 -0.295011,-0.66146 -0.661459,-0.66146 h -4.497916 c -0.366448,0 -0.661459,0.29501 -0.661459,0.66146"
         style="fill:#12806a;stroke-width:0.24976809"
         inkscape:connector-curvature="0" />
      <rect
         id="rect995-2"
         ry="0.62442023"
         rx="0.62442023"
         y="-105.93835"
         x="-55.88504"
         height="8.4666662"
         width="13.229166"
         style="opacity:0.2;stroke-width:0.24976809" />
      <rect
         id="rect997-2"
         ry="0.62442023"
         rx="0.62442023"
         y="-106.99669"
         x="-55.091293"
         height="5.2916665"
         width="11.641666"
         style="fill:#e4e4e4;stroke-width:0.24976809" />
      <rect
         id="rect999-6"
         ry="0.62442023"
         rx="0.62442023"
         y="-105.67377"
         x="-55.88504"
         height="8.4666662"
         width="13.229166"
         style="fill:#16a085;stroke-width:0.24976809" />
      <path
         id="path1001-4"
         d="m -55.223583,-109.11336 c -0.366448,0 -0.661459,0.29501 -0.661459,0.66146 v 0.26458 c 0,-0.36644 0.295011,-0.66145 0.661459,-0.66145 h 4.497916 c 0.366448,0 0.661459,0.29501 0.661459,0.66145 v -0.26458 c 0,-0.36645 -0.295011,-0.66146 -0.661459,-0.66146 z m 5.159375,1.32292 v 0.26458 h 6.746874 c 0.367771,0 0.661459,0.29501 0.661459,0.66146 v -0.26458 c 0,-0.36645 -0.293688,-0.66146 -0.661459,-0.66146 z"
         style="opacity:0.1;fill:#ffffff;stroke-width:0.24976809"
         inkscape:connector-curvature="0" />
    </g>
    <image
       y="170.27344"
       x="17.194157"
       id="image957-1"
       xlink:href="data:image/png;base64,iVBORw0KGgoAAAANSUhEUgAAAgAAAAIACAYAAAD0eNT6AAAACXBIWXMAAAsTAAALEwEAmpwYAAAK T2lDQ1BQaG90b3Nob3AgSUNDIHByb2ZpbGUAAHjanVNnVFPpFj333vRCS4iAlEtvUhUIIFJCi4AU kSYqIQkQSoghodkVUcERRUUEG8igiAOOjoCMFVEsDIoK2AfkIaKOg6OIisr74Xuja9a89+bN/rXX Pues852zzwfACAyWSDNRNYAMqUIeEeCDx8TG4eQuQIEKJHAAEAizZCFz/SMBAPh+PDwrIsAHvgAB eNMLCADATZvAMByH/w/qQplcAYCEAcB0kThLCIAUAEB6jkKmAEBGAYCdmCZTAKAEAGDLY2LjAFAt AGAnf+bTAICd+Jl7AQBblCEVAaCRACATZYhEAGg7AKzPVopFAFgwABRmS8Q5ANgtADBJV2ZIALC3 AMDOEAuyAAgMADBRiIUpAAR7AGDIIyN4AISZABRG8lc88SuuEOcqAAB4mbI8uSQ5RYFbCC1xB1dX Lh4ozkkXKxQ2YQJhmkAuwnmZGTKBNA/g88wAAKCRFRHgg/P9eM4Ors7ONo62Dl8t6r8G/yJiYuP+ 5c+rcEAAAOF0ftH+LC+zGoA7BoBt/qIl7gRoXgugdfeLZrIPQLUAoOnaV/Nw+H48PEWhkLnZ2eXk 5NhKxEJbYcpXff5nwl/AV/1s+X48/Pf14L7iJIEyXYFHBPjgwsz0TKUcz5IJhGLc5o9H/LcL//wd 0yLESWK5WCoU41EScY5EmozzMqUiiUKSKcUl0v9k4t8s+wM+3zUAsGo+AXuRLahdYwP2SycQWHTA 4vcAAPK7b8HUKAgDgGiD4c93/+8//UegJQCAZkmScQAAXkQkLlTKsz/HCAAARKCBKrBBG/TBGCzA BhzBBdzBC/xgNoRCJMTCQhBCCmSAHHJgKayCQiiGzbAdKmAv1EAdNMBRaIaTcA4uwlW4Dj1wD/ph CJ7BKLyBCQRByAgTYSHaiAFiilgjjggXmYX4IcFIBBKLJCDJiBRRIkuRNUgxUopUIFVIHfI9cgI5 h1xGupE7yAAygvyGvEcxlIGyUT3UDLVDuag3GoRGogvQZHQxmo8WoJvQcrQaPYw2oefQq2gP2o8+ Q8cwwOgYBzPEbDAuxsNCsTgsCZNjy7EirAyrxhqwVqwDu4n1Y8+xdwQSgUXACTYEd0IgYR5BSFhM WE7YSKggHCQ0EdoJNwkDhFHCJyKTqEu0JroR+cQYYjIxh1hILCPWEo8TLxB7iEPENyQSiUMyJ7mQ AkmxpFTSEtJG0m5SI+ksqZs0SBojk8naZGuyBzmULCAryIXkneTD5DPkG+Qh8lsKnWJAcaT4U+Io UspqShnlEOU05QZlmDJBVaOaUt2ooVQRNY9aQq2htlKvUYeoEzR1mjnNgxZJS6WtopXTGmgXaPdp r+h0uhHdlR5Ol9BX0svpR+iX6AP0dwwNhhWDx4hnKBmbGAcYZxl3GK+YTKYZ04sZx1QwNzHrmOeZ D5lvVVgqtip8FZHKCpVKlSaVGyovVKmqpqreqgtV81XLVI+pXlN9rkZVM1PjqQnUlqtVqp1Q61Mb U2epO6iHqmeob1Q/pH5Z/YkGWcNMw09DpFGgsV/jvMYgC2MZs3gsIWsNq4Z1gTXEJrHN2Xx2KruY /R27iz2qqaE5QzNKM1ezUvOUZj8H45hx+Jx0TgnnKKeX836K3hTvKeIpG6Y0TLkxZVxrqpaXllir SKtRq0frvTau7aedpr1Fu1n7gQ5Bx0onXCdHZ4/OBZ3nU9lT3acKpxZNPTr1ri6qa6UbobtEd79u p+6Ynr5egJ5Mb6feeb3n+hx9L/1U/W36p/VHDFgGswwkBtsMzhg8xTVxbzwdL8fb8VFDXcNAQ6Vh lWGX4YSRudE8o9VGjUYPjGnGXOMk423GbcajJgYmISZLTepN7ppSTbmmKaY7TDtMx83MzaLN1pk1 mz0x1zLnm+eb15vft2BaeFostqi2uGVJsuRaplnutrxuhVo5WaVYVVpds0atna0l1rutu6cRp7lO k06rntZnw7Dxtsm2qbcZsOXYBtuutm22fWFnYhdnt8Wuw+6TvZN9un2N/T0HDYfZDqsdWh1+c7Ry FDpWOt6azpzuP33F9JbpL2dYzxDP2DPjthPLKcRpnVOb00dnF2e5c4PziIuJS4LLLpc+Lpsbxt3I veRKdPVxXeF60vWdm7Obwu2o26/uNu5p7ofcn8w0nymeWTNz0MPIQ+BR5dE/C5+VMGvfrH5PQ0+B Z7XnIy9jL5FXrdewt6V3qvdh7xc+9j5yn+M+4zw33jLeWV/MN8C3yLfLT8Nvnl+F30N/I/9k/3r/ 0QCngCUBZwOJgUGBWwL7+Hp8Ib+OPzrbZfay2e1BjKC5QRVBj4KtguXBrSFoyOyQrSH355jOkc5p DoVQfujW0Adh5mGLw34MJ4WHhVeGP45wiFga0TGXNXfR3ENz30T6RJZE3ptnMU85ry1KNSo+qi5q PNo3ujS6P8YuZlnM1VidWElsSxw5LiquNm5svt/87fOH4p3iC+N7F5gvyF1weaHOwvSFpxapLhIs OpZATIhOOJTwQRAqqBaMJfITdyWOCnnCHcJnIi/RNtGI2ENcKh5O8kgqTXqS7JG8NXkkxTOlLOW5 hCepkLxMDUzdmzqeFpp2IG0yPTq9MYOSkZBxQqohTZO2Z+pn5mZ2y6xlhbL+xW6Lty8elQfJa7OQ rAVZLQq2QqboVFoo1yoHsmdlV2a/zYnKOZarnivN7cyzytuQN5zvn//tEsIS4ZK2pYZLVy0dWOa9 rGo5sjxxedsK4xUFK4ZWBqw8uIq2Km3VT6vtV5eufr0mek1rgV7ByoLBtQFr6wtVCuWFfevc1+1d T1gvWd+1YfqGnRs+FYmKrhTbF5cVf9go3HjlG4dvyr+Z3JS0qavEuWTPZtJm6ebeLZ5bDpaql+aX Dm4N2dq0Dd9WtO319kXbL5fNKNu7g7ZDuaO/PLi8ZafJzs07P1SkVPRU+lQ27tLdtWHX+G7R7ht7 vPY07NXbW7z3/T7JvttVAVVN1WbVZftJ+7P3P66Jqun4lvttXa1ObXHtxwPSA/0HIw6217nU1R3S PVRSj9Yr60cOxx++/p3vdy0NNg1VjZzG4iNwRHnk6fcJ3/ceDTradox7rOEH0x92HWcdL2pCmvKa RptTmvtbYlu6T8w+0dbq3nr8R9sfD5w0PFl5SvNUyWna6YLTk2fyz4ydlZ19fi753GDborZ752PO 32oPb++6EHTh0kX/i+c7vDvOXPK4dPKy2+UTV7hXmq86X23qdOo8/pPTT8e7nLuarrlca7nuer21 e2b36RueN87d9L158Rb/1tWeOT3dvfN6b/fF9/XfFt1+cif9zsu72Xcn7q28T7xf9EDtQdlD3YfV P1v+3Njv3H9qwHeg89HcR/cGhYPP/pH1jw9DBY+Zj8uGDYbrnjg+OTniP3L96fynQ89kzyaeF/6i /suuFxYvfvjV69fO0ZjRoZfyl5O/bXyl/erA6xmv28bCxh6+yXgzMV70VvvtwXfcdx3vo98PT+R8 IH8o/2j5sfVT0Kf7kxmTk/8EA5jz/GMzLdsAAAAgY0hSTQAAeiUAAICDAAD5/wAAgOkAAHUwAADq YAAAOpgAABdvkl/FRgAADoBJREFUeNrs3dtuWzkSBdBDQf//y8xDEMAx5IukI5FVe6336WmTddmi 3MmYcx4AQJaLIwAAAQAAEAAAAAEAABAAAAABAAAQAAAAAQAAEAAAAAEAABAAAAABAAAQAAAAAQAA EAAAAAEAABAAAAABAAAiXR0B9DHGmK/85885h1OGJvNizukUIHCZv4vQAAIA0HDBCwggAACWvHAA AgBY9ggFIACAZY9QAAIAWPYIBSAAgIWPQAACAFj4CAQgAICljzAAAgBY+AgEIACApY8wAAIAlj4I AyAAYOmDMAACAJY+CAMgAGDxgyCAAACWPggDCABg6YMwgAAAFj8IAggAYPGDIIAAAJY+CAMIAGDx gyCAAAAWPwgCCABY/IAggACAxQ8IAggAWPyAIIAAgMUPCAIIAFj8gCCAAIDFD4IACABY/CAIgACA xQ+CANxycQRY/qBX8QIAhgl4DUAAwOIHBAE68hUAlj/oabwAYEgAXgMQALD4AUGAlnwFYPlb/qD3 8QKA5ge8BuAFAMsfMBPwAoAmB7wGIABg+WNAqzE1hgCAoYzhqxbVIgIABi4Gq1pVqwgAGKgGKGpY DSMAYGgalKhv9Y0AgOFoIKLm1TwCAIag4Yde0AsIABh4Bh16Q28gAGDAGWroF/2CAGCYYYihf/QP AoDBhaGFntJTCAAGFQYUekyPIQAYTIYS6Df9hgBgEBlCoAf1oACAwWPogH7UjwIAho0hA/pTfwoA GC4GC+hVvSoAYKAYJqBv9a0AgCFigKCH9bAeFgAwOAwN9DP6WQDAsDAo0NvobQEAA8JwQJ+jzwUA QwEDAT2v5xEADAFDAMwAMwABQONrejAPzAMEAM2u0cFsMBt43sURaHANDnrCrPQCgII25MC8MC8E ADSzRgazw+zoyFcAGlgDg94xQ70AoHANLzBPzBMvAGhWzQp6ykz1AoBCNaTAjDFjBAA0pqYE88a8 KcpXAGhG0HsIAEjjBhDoQbM24ix9BaAgDR0wh8whLwBoOk0HetPs9QKAArT41aUaUANmkwCABkO9 qRk1o94EAI2lsVBb6kk9qS0BQENpKNSRWlNr6kgA0EiaCAtfDapBtSMAaB7No15Ql+pSvQgAmkbT qBHUqlpVI+tcHQGaxSCtfPZq9/5eV7t4ATDkDVD1oJbVsnoQANAgWPzqWl2rBQFAY/jvsdWA5lDr al0NtOV3AAxELP2YO1X7X88Ete8FgOZLwAC09NELZh8CgAZw1wgC+sIMFABQ+O4ZQQCzUABQ8Are HSMI6Bd33NbFERhmCYPM8ke9mB14AYhJuukNbIijj/SRexUAFLc7BT2lp9zpB74CUNSthpTlj/oy U/ACEJlqExvV0kev6TX36AVAIbtHUHtmjHv0AmD5u0PQf/rPHXoBMHxaDB7LH3Vp5iAAxCfXtOWv ZVGjZo+7O+lnTvoKwPJ3b6A/9ad7C30BUKSGC6hds4igF4BOzZjQcBY/lqSedV9eABSmQQJq2mxy Xye7ak00Hbyvvj2Z4wXAUvHp3/JH0PUK4J4EABdo+YMQYFa5JwGAgOXvD/UhPQT4W/YQACS3yOWv /cBftet+BAAsfxACzDDeWXcd/xyADs3kb90CwV/vuxcvAJaMewG9gnsRAHwC0Dhg2ZhpCACtmsby B4QAdyIA+OSvWUAIMON4TX11+SXA6o1i+bOy3tyX+WA+5N1HiwDg6d99WA7u2T2bEe5DAFBI7sLw VwfqQI24i+4BQBG5B0NejagRNeEe7uevA8ZgN0SW/Jzq5rme8wt1RL8ASI/uwL0LkmrJvbuDx/jP ABWNgf3GO7f8nY8eFIi9AAQXvuUv6KHO1JmZvprfAcBQNgxKnKW6+74n1R0RLwCSovN3rxaeUzBb nP9z/A4ABu+TTW/5O3e9iRcARd46oRswPvGrTbXpLvucvRcAhWHA+uTpXoQhszLQRWHj3C0Y96Rn yTt3LwASrUFiobg3y8jMTKyRKr8DULWYLX8DCLWsls19LwBoPJ8cca96GQFACnTe7gt3rKfN0DX8 SYBYChZ/5H37ZEy67X8HQHJ13u4INW8uOe/z+R0ATWYQol+FHXcU6KJYsfwRAoQA8s7aC4BBEnU3 7gf1YbYiABD0icDwQK14BaBIAKhYoBUHh+UPQoB7yTxnLwA++bce4pY/6sdLAIUCgGSK+0At4RXA CwBCloGNmjILOPvud/uDgHz6d8aGNPpH/9gVXgDA8ketgQBgGPj0YiCj5swGfd8uAPguyvkaAqg9 M8IM9gJgAOD8UYM4fwEAyV7joxbNCtoFAN8/OVvLHzVpZnQ/+53O1gsABi2oTbwASEQ+/Tt3UKNe ARLO1gsAGhzUKl4A8OnfmYOa9QqQYPkfBez537lq6hp37y70ofPuda5XLWoAOm/L5Zn/P/f0fQ37 z+qc964EAIvB8nevp/57ubt+S2mMMd2rAGBRgf4QCKBBsFr6OwB+wcTS8Ok/KxS7W/fnrPc5U18B oBkMqyU/a9pd+36a7fpx1QuAhGaRpC9/y8C9uy/nvPJMvQCAwbTFefhdAXgvfxCQpeJTxRvvyPJ3 PtVrXQ0LADEF5FOJM7bYnJead8Ydd6IXAJ/+NalF5vzUvlcALwBI6RiQzhIzXADAcNScPrU6Vz0g mAkAigaDz+J3znqBHrvRC0Dhpqw6CDsufx3jzBN7osI9CFgCAFhEzh5YFQA0rLPsksY9+bsHvWGu Vz9LLwCNlxQGnjsBM10AQBNaNEKAHgEBwKAz2Cx/vaFXnLsAoEAkcAw4d0Vj/hZDLwBoPAtFCNAz IAAYbDhvd4fzFgDAJxkDzVLSOwgAeU2o4bD83SU+kKTUrBcAg0ygsjD0jh7SO14AwKJwCu4WBIAg uydtn/6dMZl37BXAbBIAwGLAXUOdAKDZ8vjEgjv3qZX9a9QLgEIAMLO8APjEik//WFJ6y5wSAMAC QA2AAIAB1SVVG/zoMecqACgAAIgLUfEvAL4L0lSgJsx+LwCgmUCvIQDgU4kzRW3gTAUAMIxQIyAA aCT+8iQJeo56u/SqidBE6t1Z/f/zmw05PZFc71clYGEh3P70v1WPCFQCAJy2aISpOvfw+Z/f/Uwr LK30T68IACCALfz/tYCgLv8VAD79Fz37Hc5/l3+P1NrxtI4A0KxxfKqi2sLtHAToPdOS6/aSdtkY Oha/f0+zDHXoKwAosfz9OwMCAAZ80Ce3you0SwjYvZaELR7lvwIAQ/3lP4endPACAAR+ovMpFQQA fuCTUvYZdl6UlX82fekMBQCDCOfnXP2MztX5CQCAAeRnBQHgOA7PPKyl/lBbqD8vAOATsZ8ZEADA IvSzAwLAhvzlIxagM6DzWfoaRQAAwwU1BgIA+LTmLAABwLABwG4QAMCgcSaAAAA3+W4WtQYCAPik 62wAAQADGvQoCABgODsjQAAAAAHgSX45BgBe4+wd6wWg6cU6O1Bzzg4BABbz3bazAgEAABAAAAAB AAAQAAAAAQAK8kttzgwEAABAAMAnMkCvIgAAAAIAACAAAAACAAAgAAAAAgAAIAAAAAIAAAgAAIAA AAAIAACAAAAACAAAgAAAAAgAAIAAAAAIAACAAAAACAAAgAAAAAgAAIAAAAAIAACAAAAACAAAgAAA AAIAACAAAAACAAAgAAAAAgAAIAAAAAIAACAAAAACAAAgAAAAAgAAIAAAAAIAACAAAAACAAAgAAAA AgAACAAAgAAAAAgAAIAAAAAIAACAAAAACAAAgAAAAAgAAIAAAAAIAACAAAAACAAAgAAAAAgAAIAA AAAIAAAgAAAAAgAAIAAAAAIAACAAAAACAAAgAAAAAgAAIAAAAAIAACAAAAACAAAgAAAAAgAAIAAA AAIAACAAAIAAAAAIAACAAAAACAAAQHljzukUAMALAAAgAAAAAgAAIAAAAAIAACAAAAACAAAgAAAA AgAAIAAAAAIAACAAAAACAAAgAAAAAgAAIAAAgADgCABAAAAAAlzP/IeNMaYjBYDXmHMOLwAAgAAA ACwIAJ7/AeC1zty1XgAAwAsAACAAAAACwFd8/w8A73HWzvUCAABeAAAAAQAAEABu8f0/ALzXGbvX CwAAeAEAAAQAAEAA+Mz3/wCwxrM72AsAAHgBAAAEAABAAPjI9/8AsNYzu9gLAAB4AQAABAAAQAD4 x/f/ALCHR3eyFwAA8AIAAAgAAIAAcBy+/weA3Tyym70AAIAXAABAAAAABADf/wPAnu7d0V4AAMAL AAAgAAAA2QHA9/8AsLd7drUXAADwAgAACAAAQG4A8P0/ANTw253tBQAAvAAAAAIAAJAZAHz/DwC1 /GZ3ewEAAC8AAIAAAADkBQDf/wNATT/tcC8AAOAFAAAQAACArADg+38AqO27Xe4FAAC8AAAAAgAA kBMAfP8PAD18tdO9AACAFwAAQAAAADICgO//AaCXW7vdCwAAeAEAAAQAAKB/APD9PwD09HnHewEA gPQXAABAAAAAugcA3/8DQG8fd70XAABIfgEAAAQAAKB7APD9PwBk+LfzvQAAQOoLAAAgAAAAzY3j OHz/DwBeAAAAAQAAEAAAAAEAAChozOl3AAHACwAAIAAAAAIAACAAAAACAAAgAAAAAgAAIAAAAAIA ACAAAAACAAAgAAAAAgAAIAAAAAIAACAAAAACAAAEGsdxTMcAAF4AAAABAAAQAAAAAQAAEAAAAAEA ABAAAAABAAAQAAAAAQAAEAAAAAEAABAAAAABAAAQAAAAAQAABAAAQAAAAAQAAEAAAAAEAABAAAAA BAAAQAAAAAQAAEAAAAAEAABAAAAABAAAQAAAAAQAAEAAAAAEAABAAAAAAQAAEAAAAAEAABAAAAAB AAAQAACAfY05p1MAAC8AAIAAAAAIAACAAAAACAAAgAAAAAgAAIAAAAAIAACAAAAACAAAgAAAAAgA AIAAAAAIAACAAAAAAoAjAAABAAAI8GcAmjiUaO40jPEAAAAASUVORK5CYII= "
       preserveAspectRatio="none"
       height="14.133654"
       width="14.133654"
       style="stroke-width:12.77958488" />
    <g
       id="g10008-1-2"
       transform="matrix(0.30228262,0,0,0.33446572,46.276287,119.01223)"
       style="stroke-width:3.14497805">
      <rect
         transform="matrix(1,0,0,2.1968317,-1.4552083,-193.95804)"
         y="157.5623"
         x="-36.538593"
         height="20.221727"
         width="33.923363"
         id="rect1527-3-8"
         style="opacity:1;fill:#ffffff;fill-opacity:1;fill-rule:evenodd;stroke:none;stroke-width:0.56229609;stroke-linecap:round;stroke-linejoin:round;stroke-miterlimit:4;stroke-dasharray:none;stroke-dashoffset:0;stroke-opacity:1;filter:url(#filter1671-40-9)" />
      <text
         id="text871-9-1-8"
         y="160.02361"
         x="-35.433464"
         style="font-style:normal;font-weight:normal;font-size:10.58333302px;line-height:1.25;font-family:sans-serif;letter-spacing:0px;word-spacing:0px;fill:#000000;fill-opacity:1;stroke:none;stroke-width:0.83210874"
         xml:space="preserve"><tspan
           style="font-style:normal;font-variant:normal;font-weight:normal;font-stretch:normal;font-size:6.35000038px;font-family:Lato;-inkscape-font-specification:Lato;stroke-width:0.83210874"
           y="160.02361"
           x="-35.433464"
           id="tspan869-2-1-9"
           sodipodi:role="line">Title</tspan></text>
    </g>
    <g
       id="g10008-1-6-2"
       transform="matrix(0.30228262,0,0,0.33446572,46.276287,136.48514)"
       style="stroke-width:3.14497805">
      <rect
         transform="matrix(1,0,0,2.1968317,-1.4552083,-193.95804)"
         y="157.5623"
         x="-36.538593"
         height="20.221727"
         width="33.923363"
         id="rect1527-3-7-8"
         style="opacity:1;fill:#ffffff;fill-opacity:1;fill-rule:evenodd;stroke:none;stroke-width:0.56229609;stroke-linecap:round;stroke-linejoin:round;stroke-miterlimit:4;stroke-dasharray:none;stroke-dashoffset:0;stroke-opacity:1;filter:url(#filter1671-40-4-9)" />
      <text
         id="text871-9-1-5-8"
         y="160.02361"
         x="-35.433464"
         style="font-style:normal;font-weight:normal;font-size:10.58333302px;line-height:1.25;font-family:sans-serif;letter-spacing:0px;word-spacing:0px;fill:#000000;fill-opacity:1;stroke:none;stroke-width:0.83210874"
         xml:space="preserve"><tspan
           style="font-style:normal;font-variant:normal;font-weight:normal;font-stretch:normal;font-size:6.35000038px;font-family:Lato;-inkscape-font-specification:Lato;stroke-width:0.83210874"
           y="160.02361"
           x="-35.433464"
           id="tspan869-2-1-6-8"
           sodipodi:role="line">Title</tspan></text>
    </g>
    <g
       id="g989-6"
       transform="matrix(0.29463344,0,0,0.29463344,14.832713,185.09028)"
       style="stroke-width:0.89800853">
      <rect
         id="rect960-8"
         ry="2.2450211"
         rx="2.2450211"
         y="24"
         x="7"
         height="32"
         width="50"
         style="opacity:0.2;stroke-width:0.89800853" />
      <path
         id="path962-3"
         d="M 7,44.5 C 7,45.885 8.115,47 9.5,47 h 45 c 1.385,0 2.5,-1.115 2.5,-2.5 v -27 C 57,16.115 55.885,15 54.5,15 H 29 V 12.5 C 29,11.115 27.885,10 26.5,10 H 9.5 C 8.115,10 7,11.115 7,12.5"
         style="fill:#bf4b4b;stroke-width:0.89800853"
         inkscape:connector-curvature="0" />
      <rect
         id="rect964-8"
         ry="2.2450211"
         rx="2.2450211"
         y="22"
         x="7"
         height="32"
         width="50"
         style="opacity:0.2;stroke-width:0.89800853" />
      <rect
         id="rect966-3"
         ry="2.2450211"
         rx="2.2450211"
         y="18"
         x="10"
         height="20"
         width="44"
         style="fill:#e4e4e4;stroke-width:0.89800853" />
      <rect
         id="rect968-3"
         ry="2.2450211"
         rx="2.2450211"
         y="23"
         x="7"
         height="32"
         width="50"
         style="fill:#e25252;stroke-width:0.89800853" />
      <path
         id="path970-9-3"
         d="M 9.5,10 C 8.115,10 7,11.115 7,12.5 v 1 C 7,12.115 8.115,11 9.5,11 h 17 c 1.385,0 2.5,1.115 2.5,2.5 v -1 C 29,11.115 27.885,10 26.5,10 Z M 29,15 v 1 h 25.5 c 1.39,0 2.5,1.115 2.5,2.5 v -1 C 57,16.115 55.89,15 54.5,15 Z"
         style="opacity:0.1;fill:#ffffff;stroke-width:0.89800853"
         inkscape:connector-curvature="0" />
      <path
         id="path972-8"
         d="m 26.412,28 -1.414,1.414 2.304,2.304 a 2.9989,2.9989 0 0 0 -0.297,1.289 2.9989,2.9989 0 0 0 2,2.823 v 8.348 A 2.9989,2.9989 0 0 0 27.007,47 2.9989,2.9989 0 0 0 30.006,49.999 2.9989,2.9989 0 0 0 33.005,47 a 2.9989,2.9989 0 0 0 -2,-2.823 v -8.348 a 2.9989,2.9989 0 0 0 0.289,-0.121 l 4.006,4.005 a 2.9989,2.9989 0 0 0 -0.296,1.289 2.9989,2.9989 0 0 0 2.999,2.999 2.9989,2.9989 0 0 0 2.998,-2.999 2.9989,2.9989 0 0 0 -2.998,-2.998 2.9989,2.9989 0 0 0 -1.289,0.296 l -4.006,-4.005 a 2.9989,2.9989 0 0 0 0.297,-1.289 2.9989,2.9989 0 0 0 -2.999,-2.999 2.9989,2.9989 0 0 0 -1.289,0.297 l -2.303,-2.302 z"
         style="fill:#4f1d1d;stroke-width:0.89800853"
         inkscape:connector-curvature="0" />
    </g>
    <g
       id="g10220-2-8"
       transform="matrix(0.51405541,0,0,0.51405541,33.071446,90.030848)"
       style="stroke-width:1.9453156">
      <circle
         r="5.5"
         cy="157.39931"
         cx="23.342285"
         id="path815-0-8-9"
         style="opacity:1;fill:#89bbbb;fill-opacity:0.62408758;fill-rule:evenodd;stroke:#000000;stroke-width:0.77812624;stroke-linecap:round;stroke-linejoin:round;stroke-miterlimit:4;stroke-dasharray:none;stroke-dashoffset:0;stroke-opacity:1" />
      <text
         id="text871-5-3-06"
         y="159.82449"
         x="19.173391"
         style="font-style:normal;font-weight:normal;font-size:8.76107788px;line-height:1.25;font-family:sans-serif;letter-spacing:0px;word-spacing:0px;fill:#000000;fill-opacity:1;stroke:none;stroke-width:0.51469809"
         xml:space="preserve"><tspan
           style="font-style:normal;font-variant:normal;font-weight:normal;font-stretch:normal;font-size:7.59293461px;font-family:Lato;-inkscape-font-specification:Lato;stroke-width:0.51469809"
           y="159.82449"
           x="19.173391"
           id="tspan869-5-8-8"
           sodipodi:role="line">v1</tspan></text>
    </g>
    <g
       id="g10220-2-0-7"
       transform="matrix(0.51405541,0,0,0.51405541,33.071446,107.20291)"
       style="stroke-width:1.9453156">
      <circle
         r="5.5"
         cy="157.39931"
         cx="23.342285"
         id="path815-0-8-4-9"
         style="opacity:1;fill:#89bbbb;fill-opacity:0.62408758;fill-rule:evenodd;stroke:#000000;stroke-width:0.77812624;stroke-linecap:round;stroke-linejoin:round;stroke-miterlimit:4;stroke-dasharray:none;stroke-dashoffset:0;stroke-opacity:1" />
      <text
         id="text871-5-3-0-0"
         y="159.82449"
         x="19.173391"
         style="font-style:normal;font-weight:normal;font-size:8.76107788px;line-height:1.25;font-family:sans-serif;letter-spacing:0px;word-spacing:0px;fill:#000000;fill-opacity:1;stroke:none;stroke-width:0.51469809"
         xml:space="preserve"><tspan
           style="font-style:normal;font-variant:normal;font-weight:normal;font-stretch:normal;font-size:7.59293461px;font-family:Lato;-inkscape-font-specification:Lato;stroke-width:0.51469809"
           y="159.82449"
           x="19.173391"
           id="tspan869-5-8-9-3"
           sodipodi:role="line">v1</tspan></text>
    </g>
    <text
       xml:space="preserve"
       style="font-style:normal;font-weight:normal;font-size:3.36515331px;line-height:1.25;font-family:sans-serif;letter-spacing:0px;word-spacing:0px;fill:#98d1d9;fill-opacity:1;stroke:none;stroke-width:0.26458332"
       x="37.410759"
       y="149.53575"
       id="text871-9-3-3"
       transform="scale(0.95067219,1.0518873)"><tspan
         sodipodi:role="line"
         id="tspan869-2-14-7"
         x="37.410759"
         y="149.53575"
         style="font-style:normal;font-variant:normal;font-weight:normal;font-stretch:normal;font-size:2.01909208px;font-family:Lato;-inkscape-font-specification:Lato;fill:#98d1d9;fill-opacity:1;stroke-width:0.26458332">Some Text</tspan></text>
    <path
       style="fill:none;stroke:#000000;stroke-width:0.23970151;stroke-linecap:butt;stroke-linejoin:miter;stroke-miterlimit:4;stroke-dasharray:none;stroke-opacity:1;marker-end:url(#marker10575-5)"
       d="M -2.922335e-7,175.29168 H 11.90625"
       id="path10270-5"
       inkscape:connector-curvature="0"
       inkscape:path-effect="#path-effect10272-3"
       inkscape:original-d="M -2.922335e-7,175.29168 C 3.9690142,175.29142 7.9377642,175.29142 11.90625,175.29168"
       transform="matrix(1.2222222,0,0,1,49.741669,-14.55208)" />
    <rect
       style="opacity:1;fill:#ffffff;fill-opacity:1;fill-rule:evenodd;stroke:none;stroke-width:0.56229609;stroke-linecap:round;stroke-linejoin:round;stroke-miterlimit:4;stroke-dasharray:none;stroke-dashoffset:0;stroke-opacity:1;filter:url(#filter1671-0-5)"
       id="rect1527-4-7"
       width="33.923363"
       height="20.221727"
       x="-36.538593"
       y="157.5623"
       transform="matrix(0.30228262,0,0,0.7347649,95.578073,36.667026)" />
    <text
       xml:space="preserve"
       style="font-style:normal;font-weight:normal;font-size:3.36515331px;line-height:1.25;font-family:sans-serif;letter-spacing:0px;word-spacing:0px;fill:#000000;fill-opacity:1;stroke:none;stroke-width:0.26458332"
       x="89.733391"
       y="147.41289"
       id="text871-9-3-0"
       transform="scale(0.95067219,1.0518873)"><tspan
         sodipodi:role="line"
         id="tspan869-2-14-8"
         x="89.733391"
         y="147.41289"
         style="font-style:normal;font-variant:normal;font-weight:normal;font-stretch:normal;font-size:2.01909208px;font-family:Lato;-inkscape-font-specification:Lato;stroke-width:0.26458332">Title</tspan></text>
    <g
       id="g1035-6-1"
       transform="matrix(1.0593159,0,0,1.0593159,126.19564,269.00652)"
       style="stroke-width:0.94400549">
      <rect
         id="rect991-9-9"
         ry="0.62442023"
         rx="0.62442023"
         y="-105.40919"
         x="-55.88504"
         height="8.4666662"
         width="13.229166"
         style="opacity:0.2;stroke-width:0.24976809" />
      <path
         id="path993-4-9"
         d="m -55.885042,-99.985232 c 0,0.366448 0.295011,0.661459 0.661459,0.661459 h 11.906249 c 0.366448,0 0.661459,-0.295011 0.661459,-0.661459 v -7.143748 c 0,-0.36645 -0.295011,-0.66146 -0.661459,-0.66146 h -6.746874 v -0.66146 c 0,-0.36645 -0.295011,-0.66146 -0.661459,-0.66146 h -4.497916 c -0.366448,0 -0.661459,0.29501 -0.661459,0.66146"
         style="fill:#12806a;stroke-width:0.24976809"
         inkscape:connector-curvature="0" />
      <rect
         id="rect995-2-7"
         ry="0.62442023"
         rx="0.62442023"
         y="-105.93835"
         x="-55.88504"
         height="8.4666662"
         width="13.229166"
         style="opacity:0.2;stroke-width:0.24976809" />
      <rect
         id="rect997-2-8"
         ry="0.62442023"
         rx="0.62442023"
         y="-106.99669"
         x="-55.091293"
         height="5.2916665"
         width="11.641666"
         style="fill:#e4e4e4;stroke-width:0.24976809" />
      <rect
         id="rect999-6-2"
         ry="0.62442023"
         rx="0.62442023"
         y="-105.67377"
         x="-55.88504"
         height="8.4666662"
         width="13.229166"
         style="fill:#16a085;stroke-width:0.24976809" />
      <path
         id="path1001-4-5"
         d="m -55.223583,-109.11336 c -0.366448,0 -0.661459,0.29501 -0.661459,0.66146 v 0.26458 c 0,-0.36644 0.295011,-0.66145 0.661459,-0.66145 h 4.497916 c 0.366448,0 0.661459,0.29501 0.661459,0.66145 v -0.26458 c 0,-0.36645 -0.295011,-0.66146 -0.661459,-0.66146 z m 5.159375,1.32292 v 0.26458 h 6.746874 c 0.367771,0 0.661459,0.29501 0.661459,0.66146 v -0.26458 c 0,-0.36645 -0.293688,-0.66146 -0.661459,-0.66146 z"
         style="opacity:0.1;fill:#ffffff;stroke-width:0.24976809"
         inkscape:connector-curvature="0" />
    </g>
    <image
       y="170.27342"
       x="66.935829"
       id="image957-1-3"
       xlink:href="data:image/png;base64,iVBORw0KGgoAAAANSUhEUgAAAgAAAAIACAYAAAD0eNT6AAAACXBIWXMAAAsTAAALEwEAmpwYAAAK T2lDQ1BQaG90b3Nob3AgSUNDIHByb2ZpbGUAAHjanVNnVFPpFj333vRCS4iAlEtvUhUIIFJCi4AU kSYqIQkQSoghodkVUcERRUUEG8igiAOOjoCMFVEsDIoK2AfkIaKOg6OIisr74Xuja9a89+bN/rXX Pues852zzwfACAyWSDNRNYAMqUIeEeCDx8TG4eQuQIEKJHAAEAizZCFz/SMBAPh+PDwrIsAHvgAB eNMLCADATZvAMByH/w/qQplcAYCEAcB0kThLCIAUAEB6jkKmAEBGAYCdmCZTAKAEAGDLY2LjAFAt AGAnf+bTAICd+Jl7AQBblCEVAaCRACATZYhEAGg7AKzPVopFAFgwABRmS8Q5ANgtADBJV2ZIALC3 AMDOEAuyAAgMADBRiIUpAAR7AGDIIyN4AISZABRG8lc88SuuEOcqAAB4mbI8uSQ5RYFbCC1xB1dX Lh4ozkkXKxQ2YQJhmkAuwnmZGTKBNA/g88wAAKCRFRHgg/P9eM4Ors7ONo62Dl8t6r8G/yJiYuP+ 5c+rcEAAAOF0ftH+LC+zGoA7BoBt/qIl7gRoXgugdfeLZrIPQLUAoOnaV/Nw+H48PEWhkLnZ2eXk 5NhKxEJbYcpXff5nwl/AV/1s+X48/Pf14L7iJIEyXYFHBPjgwsz0TKUcz5IJhGLc5o9H/LcL//wd 0yLESWK5WCoU41EScY5EmozzMqUiiUKSKcUl0v9k4t8s+wM+3zUAsGo+AXuRLahdYwP2SycQWHTA 4vcAAPK7b8HUKAgDgGiD4c93/+8//UegJQCAZkmScQAAXkQkLlTKsz/HCAAARKCBKrBBG/TBGCzA BhzBBdzBC/xgNoRCJMTCQhBCCmSAHHJgKayCQiiGzbAdKmAv1EAdNMBRaIaTcA4uwlW4Dj1wD/ph CJ7BKLyBCQRByAgTYSHaiAFiilgjjggXmYX4IcFIBBKLJCDJiBRRIkuRNUgxUopUIFVIHfI9cgI5 h1xGupE7yAAygvyGvEcxlIGyUT3UDLVDuag3GoRGogvQZHQxmo8WoJvQcrQaPYw2oefQq2gP2o8+ Q8cwwOgYBzPEbDAuxsNCsTgsCZNjy7EirAyrxhqwVqwDu4n1Y8+xdwQSgUXACTYEd0IgYR5BSFhM WE7YSKggHCQ0EdoJNwkDhFHCJyKTqEu0JroR+cQYYjIxh1hILCPWEo8TLxB7iEPENyQSiUMyJ7mQ AkmxpFTSEtJG0m5SI+ksqZs0SBojk8naZGuyBzmULCAryIXkneTD5DPkG+Qh8lsKnWJAcaT4U+Io UspqShnlEOU05QZlmDJBVaOaUt2ooVQRNY9aQq2htlKvUYeoEzR1mjnNgxZJS6WtopXTGmgXaPdp r+h0uhHdlR5Ol9BX0svpR+iX6AP0dwwNhhWDx4hnKBmbGAcYZxl3GK+YTKYZ04sZx1QwNzHrmOeZ D5lvVVgqtip8FZHKCpVKlSaVGyovVKmqpqreqgtV81XLVI+pXlN9rkZVM1PjqQnUlqtVqp1Q61Mb U2epO6iHqmeob1Q/pH5Z/YkGWcNMw09DpFGgsV/jvMYgC2MZs3gsIWsNq4Z1gTXEJrHN2Xx2KruY /R27iz2qqaE5QzNKM1ezUvOUZj8H45hx+Jx0TgnnKKeX836K3hTvKeIpG6Y0TLkxZVxrqpaXllir SKtRq0frvTau7aedpr1Fu1n7gQ5Bx0onXCdHZ4/OBZ3nU9lT3acKpxZNPTr1ri6qa6UbobtEd79u p+6Ynr5egJ5Mb6feeb3n+hx9L/1U/W36p/VHDFgGswwkBtsMzhg8xTVxbzwdL8fb8VFDXcNAQ6Vh lWGX4YSRudE8o9VGjUYPjGnGXOMk423GbcajJgYmISZLTepN7ppSTbmmKaY7TDtMx83MzaLN1pk1 mz0x1zLnm+eb15vft2BaeFostqi2uGVJsuRaplnutrxuhVo5WaVYVVpds0atna0l1rutu6cRp7lO k06rntZnw7Dxtsm2qbcZsOXYBtuutm22fWFnYhdnt8Wuw+6TvZN9un2N/T0HDYfZDqsdWh1+c7Ry FDpWOt6azpzuP33F9JbpL2dYzxDP2DPjthPLKcRpnVOb00dnF2e5c4PziIuJS4LLLpc+Lpsbxt3I veRKdPVxXeF60vWdm7Obwu2o26/uNu5p7ofcn8w0nymeWTNz0MPIQ+BR5dE/C5+VMGvfrH5PQ0+B Z7XnIy9jL5FXrdewt6V3qvdh7xc+9j5yn+M+4zw33jLeWV/MN8C3yLfLT8Nvnl+F30N/I/9k/3r/ 0QCngCUBZwOJgUGBWwL7+Hp8Ib+OPzrbZfay2e1BjKC5QRVBj4KtguXBrSFoyOyQrSH355jOkc5p DoVQfujW0Adh5mGLw34MJ4WHhVeGP45wiFga0TGXNXfR3ENz30T6RJZE3ptnMU85ry1KNSo+qi5q PNo3ujS6P8YuZlnM1VidWElsSxw5LiquNm5svt/87fOH4p3iC+N7F5gvyF1weaHOwvSFpxapLhIs OpZATIhOOJTwQRAqqBaMJfITdyWOCnnCHcJnIi/RNtGI2ENcKh5O8kgqTXqS7JG8NXkkxTOlLOW5 hCepkLxMDUzdmzqeFpp2IG0yPTq9MYOSkZBxQqohTZO2Z+pn5mZ2y6xlhbL+xW6Lty8elQfJa7OQ rAVZLQq2QqboVFoo1yoHsmdlV2a/zYnKOZarnivN7cyzytuQN5zvn//tEsIS4ZK2pYZLVy0dWOa9 rGo5sjxxedsK4xUFK4ZWBqw8uIq2Km3VT6vtV5eufr0mek1rgV7ByoLBtQFr6wtVCuWFfevc1+1d T1gvWd+1YfqGnRs+FYmKrhTbF5cVf9go3HjlG4dvyr+Z3JS0qavEuWTPZtJm6ebeLZ5bDpaql+aX Dm4N2dq0Dd9WtO319kXbL5fNKNu7g7ZDuaO/PLi8ZafJzs07P1SkVPRU+lQ27tLdtWHX+G7R7ht7 vPY07NXbW7z3/T7JvttVAVVN1WbVZftJ+7P3P66Jqun4lvttXa1ObXHtxwPSA/0HIw6217nU1R3S PVRSj9Yr60cOxx++/p3vdy0NNg1VjZzG4iNwRHnk6fcJ3/ceDTradox7rOEH0x92HWcdL2pCmvKa RptTmvtbYlu6T8w+0dbq3nr8R9sfD5w0PFl5SvNUyWna6YLTk2fyz4ydlZ19fi753GDborZ752PO 32oPb++6EHTh0kX/i+c7vDvOXPK4dPKy2+UTV7hXmq86X23qdOo8/pPTT8e7nLuarrlca7nuer21 e2b36RueN87d9L158Rb/1tWeOT3dvfN6b/fF9/XfFt1+cif9zsu72Xcn7q28T7xf9EDtQdlD3YfV P1v+3Njv3H9qwHeg89HcR/cGhYPP/pH1jw9DBY+Zj8uGDYbrnjg+OTniP3L96fynQ89kzyaeF/6i /suuFxYvfvjV69fO0ZjRoZfyl5O/bXyl/erA6xmv28bCxh6+yXgzMV70VvvtwXfcdx3vo98PT+R8 IH8o/2j5sfVT0Kf7kxmTk/8EA5jz/GMzLdsAAAAgY0hSTQAAeiUAAICDAAD5/wAAgOkAAHUwAADq YAAAOpgAABdvkl/FRgAADoBJREFUeNrs3dtuWzkSBdBDQf//y8xDEMAx5IukI5FVe6336WmTddmi 3MmYcx4AQJaLIwAAAQAAEAAAAAEAABAAAAABAAAQAAAAAQAAEAAAAAEAABAAAAABAAAQAAAAAQAA EAAAAAEAABAAAAABAAAiXR0B9DHGmK/85885h1OGJvNizukUIHCZv4vQAAIA0HDBCwggAACWvHAA AgBY9ggFIACAZY9QAAIAWPYIBSAAgIWPQAACAFj4CAQgAICljzAAAgBY+AgEIACApY8wAAIAlj4I AyAAYOmDMAACAJY+CAMgAGDxgyCAAACWPggDCABg6YMwgAAAFj8IAggAYPGDIIAAAJY+CAMIAGDx gyCAAAAWPwgCCABY/IAggACAxQ8IAggAWPyAIIAAgMUPCAIIAFj8gCCAAIDFD4IACABY/CAIgACA xQ+CANxycQRY/qBX8QIAhgl4DUAAwOIHBAE68hUAlj/oabwAYEgAXgMQALD4AUGAlnwFYPlb/qD3 8QKA5ge8BuAFAMsfMBPwAoAmB7wGIABg+WNAqzE1hgCAoYzhqxbVIgIABi4Gq1pVqwgAGKgGKGpY DSMAYGgalKhv9Y0AgOFoIKLm1TwCAIag4Yde0AsIABh4Bh16Q28gAGDAGWroF/2CAGCYYYihf/QP AoDBhaGFntJTCAAGFQYUekyPIQAYTIYS6Df9hgBgEBlCoAf1oACAwWPogH7UjwIAho0hA/pTfwoA GC4GC+hVvSoAYKAYJqBv9a0AgCFigKCH9bAeFgAwOAwN9DP6WQDAsDAo0NvobQEAA8JwQJ+jzwUA QwEDAT2v5xEADAFDAMwAMwABQONrejAPzAMEAM2u0cFsMBt43sURaHANDnrCrPQCgII25MC8MC8E ADSzRgazw+zoyFcAGlgDg94xQ70AoHANLzBPzBMvAGhWzQp6ykz1AoBCNaTAjDFjBAA0pqYE88a8 KcpXAGhG0HsIAEjjBhDoQbM24ix9BaAgDR0wh8whLwBoOk0HetPs9QKAArT41aUaUANmkwCABkO9 qRk1o94EAI2lsVBb6kk9qS0BQENpKNSRWlNr6kgA0EiaCAtfDapBtSMAaB7No15Ql+pSvQgAmkbT qBHUqlpVI+tcHQGaxSCtfPZq9/5eV7t4ATDkDVD1oJbVsnoQANAgWPzqWl2rBQFAY/jvsdWA5lDr al0NtOV3AAxELP2YO1X7X88Ete8FgOZLwAC09NELZh8CgAZw1wgC+sIMFABQ+O4ZQQCzUABQ8Are HSMI6Bd33NbFERhmCYPM8ke9mB14AYhJuukNbIijj/SRexUAFLc7BT2lp9zpB74CUNSthpTlj/oy U/ACEJlqExvV0kev6TX36AVAIbtHUHtmjHv0AmD5u0PQf/rPHXoBMHxaDB7LH3Vp5iAAxCfXtOWv ZVGjZo+7O+lnTvoKwPJ3b6A/9ad7C30BUKSGC6hds4igF4BOzZjQcBY/lqSedV9eABSmQQJq2mxy Xye7ak00Hbyvvj2Z4wXAUvHp3/JH0PUK4J4EABdo+YMQYFa5JwGAgOXvD/UhPQT4W/YQACS3yOWv /cBftet+BAAsfxACzDDeWXcd/xyADs3kb90CwV/vuxcvAJaMewG9gnsRAHwC0Dhg2ZhpCACtmsby B4QAdyIA+OSvWUAIMON4TX11+SXA6o1i+bOy3tyX+WA+5N1HiwDg6d99WA7u2T2bEe5DAFBI7sLw VwfqQI24i+4BQBG5B0NejagRNeEe7uevA8ZgN0SW/Jzq5rme8wt1RL8ASI/uwL0LkmrJvbuDx/jP ABWNgf3GO7f8nY8eFIi9AAQXvuUv6KHO1JmZvprfAcBQNgxKnKW6+74n1R0RLwCSovN3rxaeUzBb nP9z/A4ABu+TTW/5O3e9iRcARd46oRswPvGrTbXpLvucvRcAhWHA+uTpXoQhszLQRWHj3C0Y96Rn yTt3LwASrUFiobg3y8jMTKyRKr8DULWYLX8DCLWsls19LwBoPJ8cca96GQFACnTe7gt3rKfN0DX8 SYBYChZ/5H37ZEy67X8HQHJ13u4INW8uOe/z+R0ATWYQol+FHXcU6KJYsfwRAoQA8s7aC4BBEnU3 7gf1YbYiABD0icDwQK14BaBIAKhYoBUHh+UPQoB7yTxnLwA++bce4pY/6sdLAIUCgGSK+0At4RXA CwBCloGNmjILOPvud/uDgHz6d8aGNPpH/9gVXgDA8ketgQBgGPj0YiCj5swGfd8uAPguyvkaAqg9 M8IM9gJgAOD8UYM4fwEAyV7joxbNCtoFAN8/OVvLHzVpZnQ/+53O1gsABi2oTbwASEQ+/Tt3UKNe ARLO1gsAGhzUKl4A8OnfmYOa9QqQYPkfBez537lq6hp37y70ofPuda5XLWoAOm/L5Zn/P/f0fQ37 z+qc964EAIvB8nevp/57ubt+S2mMMd2rAGBRgf4QCKBBsFr6OwB+wcTS8Ok/KxS7W/fnrPc5U18B oBkMqyU/a9pd+36a7fpx1QuAhGaRpC9/y8C9uy/nvPJMvQCAwbTFefhdAXgvfxCQpeJTxRvvyPJ3 PtVrXQ0LADEF5FOJM7bYnJead8Ydd6IXAJ/+NalF5vzUvlcALwBI6RiQzhIzXADAcNScPrU6Vz0g mAkAigaDz+J3znqBHrvRC0Dhpqw6CDsufx3jzBN7osI9CFgCAFhEzh5YFQA0rLPsksY9+bsHvWGu Vz9LLwCNlxQGnjsBM10AQBNaNEKAHgEBwKAz2Cx/vaFXnLsAoEAkcAw4d0Vj/hZDLwBoPAtFCNAz IAAYbDhvd4fzFgDAJxkDzVLSOwgAeU2o4bD83SU+kKTUrBcAg0ygsjD0jh7SO14AwKJwCu4WBIAg uydtn/6dMZl37BXAbBIAwGLAXUOdAKDZ8vjEgjv3qZX9a9QLgEIAMLO8APjEik//WFJ6y5wSAMAC QA2AAIAB1SVVG/zoMecqACgAAIgLUfEvAL4L0lSgJsx+LwCgmUCvIQDgU4kzRW3gTAUAMIxQIyAA aCT+8iQJeo56u/SqidBE6t1Z/f/zmw05PZFc71clYGEh3P70v1WPCFQCAJy2aISpOvfw+Z/f/Uwr LK30T68IACCALfz/tYCgLv8VAD79Fz37Hc5/l3+P1NrxtI4A0KxxfKqi2sLtHAToPdOS6/aSdtkY Oha/f0+zDHXoKwAosfz9OwMCAAZ80Ce3you0SwjYvZaELR7lvwIAQ/3lP4endPACAAR+ovMpFQQA fuCTUvYZdl6UlX82fekMBQCDCOfnXP2MztX5CQCAAeRnBQHgOA7PPKyl/lBbqD8vAOATsZ8ZEADA IvSzAwLAhvzlIxagM6DzWfoaRQAAwwU1BgIA+LTmLAABwLABwG4QAMCgcSaAAAA3+W4WtQYCAPik 62wAAQADGvQoCABgODsjQAAAAAHgSX45BgBe4+wd6wWg6cU6O1Bzzg4BABbz3bazAgEAABAAAAAB AAAQAAAAAQAK8kttzgwEAABAAMAnMkCvIgAAAAIAACAAAAACAAAgAAAAAgAAIAAAAAIAAAgAAIAA AAAIAACAAAAACAAAgAAAAAgAAIAAAAAIAACAAAAACAAAgAAAAAgAAIAAAAAIAACAAAAACAAAgAAA AAIAACAAAAACAAAgAAAAAgAAIAAAAAIAACAAAAACAAAgAAAAAgAAIAAAAAIAACAAAAACAAAgAAAA AgAACAAAgAAAAAgAAIAAAAAIAACAAAAACAAAgAAAAAgAAIAAAAAIAACAAAAACAAAgAAAAAgAAIAA AAAIAAAgAAAAAgAAIAAAAAIAACAAAAACAAAgAAAAAgAAIAAAAAIAACAAAAACAAAgAAAAAgAAIAAA AAIAACAAAIAAAAAIAACAAAAACAAAQHljzukUAMALAAAgAAAAAgAAIAAAAAIAACAAAAACAAAgAAAA AgAAIAAAAAIAACAAAAACAAAgAAAAAgAAIAAAgADgCABAAAAAAlzP/IeNMaYjBYDXmHMOLwAAgAAA ACwIAJ7/AeC1zty1XgAAwAsAACAAAAACwFd8/w8A73HWzvUCAABeAAAAAQAAEABu8f0/ALzXGbvX CwAAeAEAAAQAAEAA+Mz3/wCwxrM72AsAAHgBAAAEAABAAPjI9/8AsNYzu9gLAAB4AQAABAAAQAD4 x/f/ALCHR3eyFwAA8AIAAAgAAIAAcBy+/weA3Tyym70AAIAXAABAAAAABADf/wPAnu7d0V4AAMAL AAAgAAAA2QHA9/8AsLd7drUXAADwAgAACAAAQG4A8P0/ANTw253tBQAAvAAAAAIAAJAZAHz/DwC1 /GZ3ewEAAC8AAIAAAADkBQDf/wNATT/tcC8AAOAFAAAQAACArADg+38AqO27Xe4FAAC8AAAAAgAA kBMAfP8PAD18tdO9AACAFwAAQAAAADICgO//AaCXW7vdCwAAeAEAAAQAAKB/APD9PwD09HnHewEA gPQXAABAAAAAugcA3/8DQG8fd70XAABIfgEAAAQAAKB7APD9PwBk+LfzvQAAQOoLAAAgAAAAzY3j OHz/DwBeAAAAAQAAEAAAAAEAAChozOl3AAHACwAAIAAAAAIAACAAAAACAAAgAAAAAgAAIAAAAAIA ACAAAAACAAAgAAAAAgAAIAAAAAIAACAAAAACAAAEGsdxTMcAAF4AAAABAAAQAAAAAQAAEAAAAAEA ABAAAAABAAAQAAAAAQAAEAAAAAEAABAAAAABAAAQAAAAAQAABAAAQAAAAAQAAEAAAAAEAABAAAAA BAAAQAAAAAQAAEAAAAAEAABAAAAABAAAQAAAAAQAAEAAAAAEAABAAAAAAQAAEAAAAAEAABAAAAAB AAAQAACAfY05p1MAAC8AAIAAAAAIAACAAAAACAAAgAAAAAgAAIAAAAAIAACAAAAACAAAgAAAAAgA AIAAAAAIAACAAAAAAoAjAAABAAAI8GcAmjiUaO40jPEAAAAASUVORK5CYII= "
       preserveAspectRatio="none"
       height="14.133654"
       width="14.133654"
       style="stroke-width:12.77958488" />
    <g
       id="g10008-1-6-2-0"
       transform="matrix(0.30228262,0,0,0.33446572,96.017956,136.48514)"
       style="stroke-width:3.14497805">
      <rect
         transform="matrix(1,0,0,2.1968317,-1.4552083,-193.95804)"
         y="157.5623"
         x="-36.538593"
         height="20.221727"
         width="33.923363"
         id="rect1527-3-7-8-1"
         style="opacity:1;fill:#ffffff;fill-opacity:1;fill-rule:evenodd;stroke:none;stroke-width:0.56229609;stroke-linecap:round;stroke-linejoin:round;stroke-miterlimit:4;stroke-dasharray:none;stroke-dashoffset:0;stroke-opacity:1;filter:url(#filter1671-40-4-9-8)" />
      <text
         id="text871-9-1-5-8-9"
         y="160.02361"
         x="-35.433464"
         style="font-style:normal;font-weight:normal;font-size:10.58333302px;line-height:1.25;font-family:sans-serif;letter-spacing:0px;word-spacing:0px;fill:#000000;fill-opacity:1;stroke:none;stroke-width:0.83210874"
         xml:space="preserve"><tspan
           style="font-style:normal;font-variant:normal;font-weight:normal;font-stretch:normal;font-size:6.35000038px;font-family:Lato;-inkscape-font-specification:Lato;stroke-width:0.83210874"
           y="160.02361"
           x="-35.433464"
           id="tspan869-2-1-6-8-6"
           sodipodi:role="line">Title</tspan></text>
    </g>
    <g
       id="g989-6-2"
       transform="matrix(0.29463344,0,0,0.29463344,64.574383,185.09028)"
       style="stroke-width:0.89800853">
      <rect
         id="rect960-8-1"
         ry="2.2450211"
         rx="2.2450211"
         y="24"
         x="7"
         height="32"
         width="50"
         style="opacity:0.2;stroke-width:0.89800853" />
      <path
         id="path962-3-2"
         d="M 7,44.5 C 7,45.885 8.115,47 9.5,47 h 45 c 1.385,0 2.5,-1.115 2.5,-2.5 v -27 C 57,16.115 55.885,15 54.5,15 H 29 V 12.5 C 29,11.115 27.885,10 26.5,10 H 9.5 C 8.115,10 7,11.115 7,12.5"
         style="fill:#bf4b4b;stroke-width:0.89800853"
         inkscape:connector-curvature="0" />
      <rect
         id="rect964-8-0"
         ry="2.2450211"
         rx="2.2450211"
         y="22"
         x="7"
         height="32"
         width="50"
         style="opacity:0.2;stroke-width:0.89800853" />
      <rect
         id="rect966-3-7"
         ry="2.2450211"
         rx="2.2450211"
         y="18"
         x="10"
         height="20"
         width="44"
         style="fill:#e4e4e4;stroke-width:0.89800853" />
      <rect
         id="rect968-3-3"
         ry="2.2450211"
         rx="2.2450211"
         y="23"
         x="7"
         height="32"
         width="50"
         style="fill:#e25252;stroke-width:0.89800853" />
      <path
         id="path970-9-3-1"
         d="M 9.5,10 C 8.115,10 7,11.115 7,12.5 v 1 C 7,12.115 8.115,11 9.5,11 h 17 c 1.385,0 2.5,1.115 2.5,2.5 v -1 C 29,11.115 27.885,10 26.5,10 Z M 29,15 v 1 h 25.5 c 1.39,0 2.5,1.115 2.5,2.5 v -1 C 57,16.115 55.89,15 54.5,15 Z"
         style="opacity:0.1;fill:#ffffff;stroke-width:0.89800853"
         inkscape:connector-curvature="0" />
      <path
         id="path972-8-1"
         d="m 26.412,28 -1.414,1.414 2.304,2.304 a 2.9989,2.9989 0 0 0 -0.297,1.289 2.9989,2.9989 0 0 0 2,2.823 v 8.348 A 2.9989,2.9989 0 0 0 27.007,47 2.9989,2.9989 0 0 0 30.006,49.999 2.9989,2.9989 0 0 0 33.005,47 a 2.9989,2.9989 0 0 0 -2,-2.823 v -8.348 a 2.9989,2.9989 0 0 0 0.289,-0.121 l 4.006,4.005 a 2.9989,2.9989 0 0 0 -0.296,1.289 2.9989,2.9989 0 0 0 2.999,2.999 2.9989,2.9989 0 0 0 2.998,-2.999 2.9989,2.9989 0 0 0 -2.998,-2.998 2.9989,2.9989 0 0 0 -1.289,0.296 l -4.006,-4.005 a 2.9989,2.9989 0 0 0 0.297,-1.289 2.9989,2.9989 0 0 0 -2.999,-2.999 2.9989,2.9989 0 0 0 -1.289,0.297 l -2.303,-2.302 z"
         style="fill:#4f1d1d;stroke-width:0.89800853"
         inkscape:connector-curvature="0" />
    </g>
    <g
       id="g10220-2-0-7-7"
       transform="matrix(0.51405541,0,0,0.51405541,82.813115,107.20291)"
       style="stroke-width:1.9453156">
      <circle
         r="5.5"
         cy="157.39931"
         cx="23.342285"
         id="path815-0-8-4-9-7"
         style="opacity:1;fill:#89bbbb;fill-opacity:0.62408758;fill-rule:evenodd;stroke:#000000;stroke-width:0.77812624;stroke-linecap:round;stroke-linejoin:round;stroke-miterlimit:4;stroke-dasharray:none;stroke-dashoffset:0;stroke-opacity:1" />
      <text
         id="text871-5-3-0-0-4"
         y="159.82449"
         x="19.173391"
         style="font-style:normal;font-weight:normal;font-size:8.76107788px;line-height:1.25;font-family:sans-serif;letter-spacing:0px;word-spacing:0px;fill:#000000;fill-opacity:1;stroke:none;stroke-width:0.51469809"
         xml:space="preserve"><tspan
           style="font-style:normal;font-variant:normal;font-weight:normal;font-stretch:normal;font-size:7.59293461px;font-family:Lato;-inkscape-font-specification:Lato;stroke-width:0.51469809"
           y="159.82449"
           x="19.173391"
           id="tspan869-5-8-9-3-0"
           sodipodi:role="line">v1</tspan></text>
    </g>
    <text
       xml:space="preserve"
       style="font-style:normal;font-weight:normal;font-size:3.36515331px;line-height:1.25;font-family:sans-serif;letter-spacing:0px;word-spacing:0px;fill:#98d1d9;fill-opacity:1;stroke:none;stroke-width:0.26458332"
       x="89.733391"
       y="149.53575"
       id="text871-9-3-3-6"
       transform="scale(0.95067219,1.0518873)"><tspan
         sodipodi:role="line"
         id="tspan869-2-14-7-4"
         x="89.733391"
         y="149.53575"
         style="font-style:normal;font-variant:normal;font-weight:normal;font-stretch:normal;font-size:2.01909208px;font-family:Lato;-inkscape-font-specification:Lato;fill:#98d1d9;fill-opacity:1;stroke-width:0.26458332">Some Text</tspan></text>
    <g
       id="g11738"
       transform="matrix(0.32648898,0,0,0.32648898,38.473137,106.34073)"
       style="stroke-width:3.06289053">
      <path
         transform="matrix(0.23429251,0,0,0.28560673,-19.558921,98.423368)"
         style="fill:#feffff;fill-opacity:1;fill-rule:evenodd;stroke:none;stroke-width:3.13278484;stroke-linecap:square;stroke-miterlimit:10;filter:url(#filter3358-7)"
         inkscape:connector-curvature="0"
         d="m 235.67192,169.60866 h 163.937 v 40.7874 h -163.937 z"
         id="path3049-9" />
      <text
         xml:space="preserve"
         style="font-style:normal;font-weight:normal;font-size:10.58333302px;line-height:1.25;font-family:sans-serif;letter-spacing:0px;word-spacing:0px;fill:#000000;fill-opacity:1;stroke:none;stroke-width:0.8103897"
         x="55.002403"
         y="154.99615"
         id="text4395-4"><tspan
           sodipodi:role="line"
           x="55.002403"
           y="154.99615"
           style="font-style:normal;font-variant:normal;font-weight:normal;font-stretch:normal;font-size:8.46666622px;font-family:monospace;-inkscape-font-specification:monospace;text-align:center;text-anchor:middle;stroke-width:0.8103897"
           id="tspan4403-1">git add</tspan></text>
    </g>
  </g>
</svg>
