<?xml version="1.0" encoding="UTF-8" standalone="no"?>
<!-- Created with Inkscape (http://www.inkscape.org/) -->

<svg
   xmlns:dc="http://purl.org/dc/elements/1.1/"
   xmlns:cc="http://creativecommons.org/ns#"
   xmlns:rdf="http://www.w3.org/1999/02/22-rdf-syntax-ns#"
   xmlns:svg="http://www.w3.org/2000/svg"
   xmlns="http://www.w3.org/2000/svg"
   xmlns:xlink="http://www.w3.org/1999/xlink"
   xmlns:sodipodi="http://sodipodi.sourceforge.net/DTD/sodipodi-0.dtd"
   xmlns:inkscape="http://www.inkscape.org/namespaces/inkscape"
   width="251.43167mm"
   height="45.552761mm"
   viewBox="0 0 251.43167 45.55276"
   version="1.1"
   id="svg2333"
   inkscape:version="0.92.5 (2060ec1f9f, 2020-04-08)"
   sodipodi:docname="git_head_index_worktree_diff_staged.svg">
  <defs
     id="defs2327">
    <marker
       inkscape:stockid="Arrow1Lstart"
       orient="auto"
       refY="0.0"
       refX="0.0"
       id="marker1200"
       style="overflow:visible"
       inkscape:isstock="true">
      <path
         id="path1198"
         d="M 0.0,0.0 L 5.0,-5.0 L -12.5,0.0 L 5.0,5.0 L 0.0,0.0 z "
         style="fill-rule:evenodd;stroke:#3d5acc;stroke-width:1pt;stroke-opacity:1;fill:#3d5acc;fill-opacity:1"
         transform="scale(0.8) translate(12.5,0)" />
    </marker>
    <marker
       inkscape:stockid="Arrow1Lstart"
       orient="auto"
       refY="0.0"
       refX="0.0"
       id="Arrow1Lstart"
       style="overflow:visible"
       inkscape:isstock="true">
      <path
         id="path892"
         d="M 0.0,0.0 L 5.0,-5.0 L -12.5,0.0 L 5.0,5.0 L 0.0,0.0 z "
         style="fill-rule:evenodd;stroke:#3d5acc;stroke-width:1pt;stroke-opacity:1;fill:#3d5acc;fill-opacity:1"
         transform="scale(0.8) translate(12.5,0)" />
    </marker>
    <marker
       inkscape:isstock="true"
       style="overflow:visible"
       id="Arrow2Lend-6-6"
       refX="0"
       refY="0"
       orient="auto"
       inkscape:stockid="Arrow2Lend">
      <path
         transform="matrix(-1.1,0,0,-1.1,-1.1,0)"
         d="M 8.7185878,4.0337352 -2.2072895,0.01601326 8.7185884,-4.0017078 c -1.7454984,2.3720609 -1.7354408,5.6174519 -6e-7,8.035443 z"
         style="fill:#3d5acc;fill-opacity:1;fill-rule:evenodd;stroke:#3d5acc;stroke-width:0.625;stroke-linejoin:round;stroke-opacity:1"
         id="path3831-3-9"
         inkscape:connector-curvature="0" />
    </marker>
    <marker
       inkscape:isstock="true"
       style="overflow:visible"
       id="Arrow2Lend-6-8-7"
       refX="0"
       refY="0"
       orient="auto"
       inkscape:stockid="Arrow2Lend">
      <path
         transform="matrix(-1.1,0,0,-1.1,-1.1,0)"
         d="M 8.7185878,4.0337352 -2.2072895,0.01601326 8.7185884,-4.0017078 c -1.7454984,2.3720609 -1.7354408,5.6174519 -6e-7,8.035443 z"
         style="fill:#3d5acc;fill-opacity:1;fill-rule:evenodd;stroke:#3d5acc;stroke-width:0.625;stroke-linejoin:round;stroke-opacity:1"
         id="path3831-3-02-6"
         inkscape:connector-curvature="0" />
    </marker>
  </defs>
  <sodipodi:namedview
     id="base"
     pagecolor="#ffffff"
     bordercolor="#666666"
     borderopacity="1.0"
     inkscape:pageopacity="0.0"
     inkscape:pageshadow="2"
     inkscape:zoom="2.7323641"
     inkscape:cx="410.12328"
     inkscape:cy="38.913189"
     inkscape:document-units="mm"
     inkscape:current-layer="layer1"
     showgrid="false"
     inkscape:window-width="3840"
     inkscape:window-height="2032"
     inkscape:window-x="0"
     inkscape:window-y="54"
     inkscape:window-maximized="1"
     fit-margin-top="0"
     fit-margin-left="0"
     fit-margin-right="0"
     fit-margin-bottom="0">
    <inkscape:grid
       type="xygrid"
       id="grid4749"
       originx="195.7456"
       originy="-370.99401" />
  </sodipodi:namedview>
  <metadata
     id="metadata2330">
    <rdf:RDF>
      <cc:Work
         rdf:about="">
        <dc:format>image/svg+xml</dc:format>
        <dc:type
           rdf:resource="http://purl.org/dc/dcmitype/StillImage" />
        <dc:title></dc:title>
      </cc:Work>
    </rdf:RDF>
  </metadata>
  <g
     inkscape:label="Layer 1"
     inkscape:groupmode="layer"
     id="layer1"
     transform="translate(195.74563,119.5468)">
    <image
       y="-112.72717"
       x="-90.560463"
       id="image957"
       xlink:href="data:image/png;base64,iVBORw0KGgoAAAANSUhEUgAAAgAAAAIACAYAAAD0eNT6AAAACXBIWXMAAAsTAAALEwEAmpwYAAAK T2lDQ1BQaG90b3Nob3AgSUNDIHByb2ZpbGUAAHjanVNnVFPpFj333vRCS4iAlEtvUhUIIFJCi4AU kSYqIQkQSoghodkVUcERRUUEG8igiAOOjoCMFVEsDIoK2AfkIaKOg6OIisr74Xuja9a89+bN/rXX Pues852zzwfACAyWSDNRNYAMqUIeEeCDx8TG4eQuQIEKJHAAEAizZCFz/SMBAPh+PDwrIsAHvgAB eNMLCADATZvAMByH/w/qQplcAYCEAcB0kThLCIAUAEB6jkKmAEBGAYCdmCZTAKAEAGDLY2LjAFAt AGAnf+bTAICd+Jl7AQBblCEVAaCRACATZYhEAGg7AKzPVopFAFgwABRmS8Q5ANgtADBJV2ZIALC3 AMDOEAuyAAgMADBRiIUpAAR7AGDIIyN4AISZABRG8lc88SuuEOcqAAB4mbI8uSQ5RYFbCC1xB1dX Lh4ozkkXKxQ2YQJhmkAuwnmZGTKBNA/g88wAAKCRFRHgg/P9eM4Ors7ONo62Dl8t6r8G/yJiYuP+ 5c+rcEAAAOF0ftH+LC+zGoA7BoBt/qIl7gRoXgugdfeLZrIPQLUAoOnaV/Nw+H48PEWhkLnZ2eXk 5NhKxEJbYcpXff5nwl/AV/1s+X48/Pf14L7iJIEyXYFHBPjgwsz0TKUcz5IJhGLc5o9H/LcL//wd 0yLESWK5WCoU41EScY5EmozzMqUiiUKSKcUl0v9k4t8s+wM+3zUAsGo+AXuRLahdYwP2SycQWHTA 4vcAAPK7b8HUKAgDgGiD4c93/+8//UegJQCAZkmScQAAXkQkLlTKsz/HCAAARKCBKrBBG/TBGCzA BhzBBdzBC/xgNoRCJMTCQhBCCmSAHHJgKayCQiiGzbAdKmAv1EAdNMBRaIaTcA4uwlW4Dj1wD/ph CJ7BKLyBCQRByAgTYSHaiAFiilgjjggXmYX4IcFIBBKLJCDJiBRRIkuRNUgxUopUIFVIHfI9cgI5 h1xGupE7yAAygvyGvEcxlIGyUT3UDLVDuag3GoRGogvQZHQxmo8WoJvQcrQaPYw2oefQq2gP2o8+ Q8cwwOgYBzPEbDAuxsNCsTgsCZNjy7EirAyrxhqwVqwDu4n1Y8+xdwQSgUXACTYEd0IgYR5BSFhM WE7YSKggHCQ0EdoJNwkDhFHCJyKTqEu0JroR+cQYYjIxh1hILCPWEo8TLxB7iEPENyQSiUMyJ7mQ AkmxpFTSEtJG0m5SI+ksqZs0SBojk8naZGuyBzmULCAryIXkneTD5DPkG+Qh8lsKnWJAcaT4U+Io UspqShnlEOU05QZlmDJBVaOaUt2ooVQRNY9aQq2htlKvUYeoEzR1mjnNgxZJS6WtopXTGmgXaPdp r+h0uhHdlR5Ol9BX0svpR+iX6AP0dwwNhhWDx4hnKBmbGAcYZxl3GK+YTKYZ04sZx1QwNzHrmOeZ D5lvVVgqtip8FZHKCpVKlSaVGyovVKmqpqreqgtV81XLVI+pXlN9rkZVM1PjqQnUlqtVqp1Q61Mb U2epO6iHqmeob1Q/pH5Z/YkGWcNMw09DpFGgsV/jvMYgC2MZs3gsIWsNq4Z1gTXEJrHN2Xx2KruY /R27iz2qqaE5QzNKM1ezUvOUZj8H45hx+Jx0TgnnKKeX836K3hTvKeIpG6Y0TLkxZVxrqpaXllir SKtRq0frvTau7aedpr1Fu1n7gQ5Bx0onXCdHZ4/OBZ3nU9lT3acKpxZNPTr1ri6qa6UbobtEd79u p+6Ynr5egJ5Mb6feeb3n+hx9L/1U/W36p/VHDFgGswwkBtsMzhg8xTVxbzwdL8fb8VFDXcNAQ6Vh lWGX4YSRudE8o9VGjUYPjGnGXOMk423GbcajJgYmISZLTepN7ppSTbmmKaY7TDtMx83MzaLN1pk1 mz0x1zLnm+eb15vft2BaeFostqi2uGVJsuRaplnutrxuhVo5WaVYVVpds0atna0l1rutu6cRp7lO k06rntZnw7Dxtsm2qbcZsOXYBtuutm22fWFnYhdnt8Wuw+6TvZN9un2N/T0HDYfZDqsdWh1+c7Ry FDpWOt6azpzuP33F9JbpL2dYzxDP2DPjthPLKcRpnVOb00dnF2e5c4PziIuJS4LLLpc+Lpsbxt3I veRKdPVxXeF60vWdm7Obwu2o26/uNu5p7ofcn8w0nymeWTNz0MPIQ+BR5dE/C5+VMGvfrH5PQ0+B Z7XnIy9jL5FXrdewt6V3qvdh7xc+9j5yn+M+4zw33jLeWV/MN8C3yLfLT8Nvnl+F30N/I/9k/3r/ 0QCngCUBZwOJgUGBWwL7+Hp8Ib+OPzrbZfay2e1BjKC5QRVBj4KtguXBrSFoyOyQrSH355jOkc5p DoVQfujW0Adh5mGLw34MJ4WHhVeGP45wiFga0TGXNXfR3ENz30T6RJZE3ptnMU85ry1KNSo+qi5q PNo3ujS6P8YuZlnM1VidWElsSxw5LiquNm5svt/87fOH4p3iC+N7F5gvyF1weaHOwvSFpxapLhIs OpZATIhOOJTwQRAqqBaMJfITdyWOCnnCHcJnIi/RNtGI2ENcKh5O8kgqTXqS7JG8NXkkxTOlLOW5 hCepkLxMDUzdmzqeFpp2IG0yPTq9MYOSkZBxQqohTZO2Z+pn5mZ2y6xlhbL+xW6Lty8elQfJa7OQ rAVZLQq2QqboVFoo1yoHsmdlV2a/zYnKOZarnivN7cyzytuQN5zvn//tEsIS4ZK2pYZLVy0dWOa9 rGo5sjxxedsK4xUFK4ZWBqw8uIq2Km3VT6vtV5eufr0mek1rgV7ByoLBtQFr6wtVCuWFfevc1+1d T1gvWd+1YfqGnRs+FYmKrhTbF5cVf9go3HjlG4dvyr+Z3JS0qavEuWTPZtJm6ebeLZ5bDpaql+aX Dm4N2dq0Dd9WtO319kXbL5fNKNu7g7ZDuaO/PLi8ZafJzs07P1SkVPRU+lQ27tLdtWHX+G7R7ht7 vPY07NXbW7z3/T7JvttVAVVN1WbVZftJ+7P3P66Jqun4lvttXa1ObXHtxwPSA/0HIw6217nU1R3S PVRSj9Yr60cOxx++/p3vdy0NNg1VjZzG4iNwRHnk6fcJ3/ceDTradox7rOEH0x92HWcdL2pCmvKa RptTmvtbYlu6T8w+0dbq3nr8R9sfD5w0PFl5SvNUyWna6YLTk2fyz4ydlZ19fi753GDborZ752PO 32oPb++6EHTh0kX/i+c7vDvOXPK4dPKy2+UTV7hXmq86X23qdOo8/pPTT8e7nLuarrlca7nuer21 e2b36RueN87d9L158Rb/1tWeOT3dvfN6b/fF9/XfFt1+cif9zsu72Xcn7q28T7xf9EDtQdlD3YfV P1v+3Njv3H9qwHeg89HcR/cGhYPP/pH1jw9DBY+Zj8uGDYbrnjg+OTniP3L96fynQ89kzyaeF/6i /suuFxYvfvjV69fO0ZjRoZfyl5O/bXyl/erA6xmv28bCxh6+yXgzMV70VvvtwXfcdx3vo98PT+R8 IH8o/2j5sfVT0Kf7kxmTk/8EA5jz/GMzLdsAAAAgY0hSTQAAeiUAAICDAAD5/wAAgOkAAHUwAADq YAAAOpgAABdvkl/FRgAADoBJREFUeNrs3dtuWzkSBdBDQf//y8xDEMAx5IukI5FVe6336WmTddmi 3MmYcx4AQJaLIwAAAQAAEAAAAAEAABAAAAABAAAQAAAAAQAAEAAAAAEAABAAAAABAAAQAAAAAQAA EAAAAAEAABAAAAABAAAiXR0B9DHGmK/85885h1OGJvNizukUIHCZv4vQAAIA0HDBCwggAACWvHAA AgBY9ggFIACAZY9QAAIAWPYIBSAAgIWPQAACAFj4CAQgAICljzAAAgBY+AgEIACApY8wAAIAlj4I AyAAYOmDMAACAJY+CAMgAGDxgyCAAACWPggDCABg6YMwgAAAFj8IAggAYPGDIIAAAJY+CAMIAGDx gyCAAAAWPwgCCABY/IAggACAxQ8IAggAWPyAIIAAgMUPCAIIAFj8gCCAAIDFD4IACABY/CAIgACA xQ+CANxycQRY/qBX8QIAhgl4DUAAwOIHBAE68hUAlj/oabwAYEgAXgMQALD4AUGAlnwFYPlb/qD3 8QKA5ge8BuAFAMsfMBPwAoAmB7wGIABg+WNAqzE1hgCAoYzhqxbVIgIABi4Gq1pVqwgAGKgGKGpY DSMAYGgalKhv9Y0AgOFoIKLm1TwCAIag4Yde0AsIABh4Bh16Q28gAGDAGWroF/2CAGCYYYihf/QP AoDBhaGFntJTCAAGFQYUekyPIQAYTIYS6Df9hgBgEBlCoAf1oACAwWPogH7UjwIAho0hA/pTfwoA GC4GC+hVvSoAYKAYJqBv9a0AgCFigKCH9bAeFgAwOAwN9DP6WQDAsDAo0NvobQEAA8JwQJ+jzwUA QwEDAT2v5xEADAFDAMwAMwABQONrejAPzAMEAM2u0cFsMBt43sURaHANDnrCrPQCgII25MC8MC8E ADSzRgazw+zoyFcAGlgDg94xQ70AoHANLzBPzBMvAGhWzQp6ykz1AoBCNaTAjDFjBAA0pqYE88a8 KcpXAGhG0HsIAEjjBhDoQbM24ix9BaAgDR0wh8whLwBoOk0HetPs9QKAArT41aUaUANmkwCABkO9 qRk1o94EAI2lsVBb6kk9qS0BQENpKNSRWlNr6kgA0EiaCAtfDapBtSMAaB7No15Ql+pSvQgAmkbT qBHUqlpVI+tcHQGaxSCtfPZq9/5eV7t4ATDkDVD1oJbVsnoQANAgWPzqWl2rBQFAY/jvsdWA5lDr al0NtOV3AAxELP2YO1X7X88Ete8FgOZLwAC09NELZh8CgAZw1wgC+sIMFABQ+O4ZQQCzUABQ8Are HSMI6Bd33NbFERhmCYPM8ke9mB14AYhJuukNbIijj/SRexUAFLc7BT2lp9zpB74CUNSthpTlj/oy U/ACEJlqExvV0kev6TX36AVAIbtHUHtmjHv0AmD5u0PQf/rPHXoBMHxaDB7LH3Vp5iAAxCfXtOWv ZVGjZo+7O+lnTvoKwPJ3b6A/9ad7C30BUKSGC6hds4igF4BOzZjQcBY/lqSedV9eABSmQQJq2mxy Xye7ak00Hbyvvj2Z4wXAUvHp3/JH0PUK4J4EABdo+YMQYFa5JwGAgOXvD/UhPQT4W/YQACS3yOWv /cBftet+BAAsfxACzDDeWXcd/xyADs3kb90CwV/vuxcvAJaMewG9gnsRAHwC0Dhg2ZhpCACtmsby B4QAdyIA+OSvWUAIMON4TX11+SXA6o1i+bOy3tyX+WA+5N1HiwDg6d99WA7u2T2bEe5DAFBI7sLw VwfqQI24i+4BQBG5B0NejagRNeEe7uevA8ZgN0SW/Jzq5rme8wt1RL8ASI/uwL0LkmrJvbuDx/jP ABWNgf3GO7f8nY8eFIi9AAQXvuUv6KHO1JmZvprfAcBQNgxKnKW6+74n1R0RLwCSovN3rxaeUzBb nP9z/A4ABu+TTW/5O3e9iRcARd46oRswPvGrTbXpLvucvRcAhWHA+uTpXoQhszLQRWHj3C0Y96Rn yTt3LwASrUFiobg3y8jMTKyRKr8DULWYLX8DCLWsls19LwBoPJ8cca96GQFACnTe7gt3rKfN0DX8 SYBYChZ/5H37ZEy67X8HQHJ13u4INW8uOe/z+R0ATWYQol+FHXcU6KJYsfwRAoQA8s7aC4BBEnU3 7gf1YbYiABD0icDwQK14BaBIAKhYoBUHh+UPQoB7yTxnLwA++bce4pY/6sdLAIUCgGSK+0At4RXA CwBCloGNmjILOPvud/uDgHz6d8aGNPpH/9gVXgDA8ketgQBgGPj0YiCj5swGfd8uAPguyvkaAqg9 M8IM9gJgAOD8UYM4fwEAyV7joxbNCtoFAN8/OVvLHzVpZnQ/+53O1gsABi2oTbwASEQ+/Tt3UKNe ARLO1gsAGhzUKl4A8OnfmYOa9QqQYPkfBez537lq6hp37y70ofPuda5XLWoAOm/L5Zn/P/f0fQ37 z+qc964EAIvB8nevp/57ubt+S2mMMd2rAGBRgf4QCKBBsFr6OwB+wcTS8Ok/KxS7W/fnrPc5U18B oBkMqyU/a9pd+36a7fpx1QuAhGaRpC9/y8C9uy/nvPJMvQCAwbTFefhdAXgvfxCQpeJTxRvvyPJ3 PtVrXQ0LADEF5FOJM7bYnJead8Ydd6IXAJ/+NalF5vzUvlcALwBI6RiQzhIzXADAcNScPrU6Vz0g mAkAigaDz+J3znqBHrvRC0Dhpqw6CDsufx3jzBN7osI9CFgCAFhEzh5YFQA0rLPsksY9+bsHvWGu Vz9LLwCNlxQGnjsBM10AQBNaNEKAHgEBwKAz2Cx/vaFXnLsAoEAkcAw4d0Vj/hZDLwBoPAtFCNAz IAAYbDhvd4fzFgDAJxkDzVLSOwgAeU2o4bD83SU+kKTUrBcAg0ygsjD0jh7SO14AwKJwCu4WBIAg uydtn/6dMZl37BXAbBIAwGLAXUOdAKDZ8vjEgjv3qZX9a9QLgEIAMLO8APjEik//WFJ6y5wSAMAC QA2AAIAB1SVVG/zoMecqACgAAIgLUfEvAL4L0lSgJsx+LwCgmUCvIQDgU4kzRW3gTAUAMIxQIyAA aCT+8iQJeo56u/SqidBE6t1Z/f/zmw05PZFc71clYGEh3P70v1WPCFQCAJy2aISpOvfw+Z/f/Uwr LK30T68IACCALfz/tYCgLv8VAD79Fz37Hc5/l3+P1NrxtI4A0KxxfKqi2sLtHAToPdOS6/aSdtkY Oha/f0+zDHXoKwAosfz9OwMCAAZ80Ce3you0SwjYvZaELR7lvwIAQ/3lP4endPACAAR+ovMpFQQA fuCTUvYZdl6UlX82fekMBQCDCOfnXP2MztX5CQCAAeRnBQHgOA7PPKyl/lBbqD8vAOATsZ8ZEADA IvSzAwLAhvzlIxagM6DzWfoaRQAAwwU1BgIA+LTmLAABwLABwG4QAMCgcSaAAAA3+W4WtQYCAPik 62wAAQADGvQoCABgODsjQAAAAAHgSX45BgBe4+wd6wWg6cU6O1Bzzg4BABbz3bazAgEAABAAAAAB AAAQAAAAAQAK8kttzgwEAABAAMAnMkCvIgAAAAIAACAAAAACAAAgAAAAAgAAIAAAAAIAAAgAAIAA AAAIAACAAAAACAAAgAAAAAgAAIAAAAAIAACAAAAACAAAgAAAAAgAAIAAAAAIAACAAAAACAAAgAAA AAIAACAAAAACAAAgAAAAAgAAIAAAAAIAACAAAAACAAAgAAAAAgAAIAAAAAIAACAAAAACAAAgAAAA AgAACAAAgAAAAAgAAIAAAAAIAACAAAAACAAAgAAAAAgAAIAAAAAIAACAAAAACAAAgAAAAAgAAIAA AAAIAAAgAAAAAgAAIAAAAAIAACAAAAACAAAgAAAAAgAAIAAAAAIAACAAAAACAAAgAAAAAgAAIAAA AAIAACAAAIAAAAAIAACAAAAACAAAQHljzukUAMALAAAgAAAAAgAAIAAAAAIAACAAAAACAAAgAAAA AgAAIAAAAAIAACAAAAACAAAgAAAAAgAAIAAAgADgCABAAAAAAlzP/IeNMaYjBYDXmHMOLwAAgAAA ACwIAJ7/AeC1zty1XgAAwAsAACAAAAACwFd8/w8A73HWzvUCAABeAAAAAQAAEABu8f0/ALzXGbvX CwAAeAEAAAQAAEAA+Mz3/wCwxrM72AsAAHgBAAAEAABAAPjI9/8AsNYzu9gLAAB4AQAABAAAQAD4 x/f/ALCHR3eyFwAA8AIAAAgAAIAAcBy+/weA3Tyym70AAIAXAABAAAAABADf/wPAnu7d0V4AAMAL AAAgAAAA2QHA9/8AsLd7drUXAADwAgAACAAAQG4A8P0/ANTw253tBQAAvAAAAAIAAJAZAHz/DwC1 /GZ3ewEAAC8AAIAAAADkBQDf/wNATT/tcC8AAOAFAAAQAACArADg+38AqO27Xe4FAAC8AAAAAgAA kBMAfP8PAD18tdO9AACAFwAAQAAAADICgO//AaCXW7vdCwAAeAEAAAQAAKB/APD9PwD09HnHewEA gPQXAABAAAAAugcA3/8DQG8fd70XAABIfgEAAAQAAKB7APD9PwBk+LfzvQAAQOoLAAAgAAAAzY3j OHz/DwBeAAAAAQAAEAAAAAEAAChozOl3AAHACwAAIAAAAAIAACAAAAACAAAgAAAAAgAAIAAAAAIA ACAAAAACAAAgAAAAAgAAIAAAAAIAACAAAAACAAAEGsdxTMcAAF4AAAABAAAQAAAAAQAAEAAAAAEA ABAAAAABAAAQAAAAAQAAEAAAAAEAABAAAAABAAAQAAAAAQAABAAAQAAAAAQAAEAAAAAEAABAAAAA BAAAQAAAAAQAAEAAAAAEAABAAAAABAAAQAAAAAQAAEAAAAAEAABAAAAAAQAAEAAAAAEAABAAAAAB AAAQAACAfY05p1MAAC8AAIAAAAAIAACAAAAACAAAgAAAAAgAAIAAAAAIAACAAAAACAAAgAAAAAgA AIAAAAAIAACAAAAAAoAjAAABAAAI8GcAmjiUaO40jPEAAAAASUVORK5CYII= "
       preserveAspectRatio="none"
       height="38.702106"
       width="38.702106"
       style="stroke-width:4.66698694;opacity:0.319" />
    <g
       id="g989"
       transform="matrix(0.84269893,0,0,0.84269893,7.6522095,-121.18518)"
       style="opacity:0.319;stroke-width:0.31397137">
      <rect
         id="rect960"
         ry="0.78492838"
         rx="0.78492838"
         y="24"
         x="7"
         height="32"
         width="50"
         style="opacity:0.2;stroke-width:0.31397137" />
      <path
         id="path962"
         d="M 7,44.5 C 7,45.885 8.115,47 9.5,47 h 45 c 1.385,0 2.5,-1.115 2.5,-2.5 v -27 C 57,16.115 55.885,15 54.5,15 H 29 V 12.5 C 29,11.115 27.885,10 26.5,10 H 9.5 C 8.115,10 7,11.115 7,12.5"
         style="fill:#bf4b4b;stroke-width:0.31397137"
         inkscape:connector-curvature="0" />
      <rect
         id="rect964"
         ry="0.78492838"
         rx="0.78492838"
         y="22"
         x="7"
         height="32"
         width="50"
         style="opacity:0.2;stroke-width:0.31397137" />
      <rect
         id="rect966"
         ry="0.78492838"
         rx="0.78492838"
         y="18"
         x="10"
         height="20"
         width="44"
         style="fill:#e4e4e4;stroke-width:0.31397137" />
      <rect
         id="rect968"
         ry="0.78492838"
         rx="0.78492838"
         y="23"
         x="7"
         height="32"
         width="50"
         style="fill:#e25252;stroke-width:0.31397137" />
      <path
         id="path970"
         d="M 9.5,10 C 8.115,10 7,11.115 7,12.5 v 1 C 7,12.115 8.115,11 9.5,11 h 17 c 1.385,0 2.5,1.115 2.5,2.5 v -1 C 29,11.115 27.885,10 26.5,10 Z M 29,15 v 1 h 25.5 c 1.39,0 2.5,1.115 2.5,2.5 v -1 C 57,16.115 55.89,15 54.5,15 Z"
         style="opacity:0.1;fill:#ffffff;stroke-width:0.31397137"
         inkscape:connector-curvature="0" />
      <path
         id="path972"
         d="m 26.412,28 -1.414,1.414 2.304,2.304 a 2.9989,2.9989 0 0 0 -0.297,1.289 2.9989,2.9989 0 0 0 2,2.823 v 8.348 A 2.9989,2.9989 0 0 0 27.007,47 2.9989,2.9989 0 0 0 30.006,49.999 2.9989,2.9989 0 0 0 33.005,47 a 2.9989,2.9989 0 0 0 -2,-2.823 v -8.348 a 2.9989,2.9989 0 0 0 0.289,-0.121 l 4.006,4.005 a 2.9989,2.9989 0 0 0 -0.296,1.289 2.9989,2.9989 0 0 0 2.999,2.999 2.9989,2.9989 0 0 0 2.998,-2.999 2.9989,2.9989 0 0 0 -2.998,-2.998 2.9989,2.9989 0 0 0 -1.289,0.296 l -4.006,-4.005 a 2.9989,2.9989 0 0 0 0.297,-1.289 2.9989,2.9989 0 0 0 -2.999,-2.999 2.9989,2.9989 0 0 0 -1.289,0.297 l -2.303,-2.302 z"
         style="fill:#4f1d1d;stroke-width:0.31397137"
         inkscape:connector-curvature="0" />
    </g>
    <g
       id="g1035"
       transform="matrix(3.0807444,0,0,3.0807444,-23.578096,224.02664)"
       style="opacity:0.319;stroke-width:0.32459688">
      <rect
         id="rect991"
         ry="0.2147073"
         rx="0.2147073"
         y="-105.40919"
         x="-55.88504"
         height="8.4666662"
         width="13.229166"
         style="opacity:0.2;stroke-width:0.08588292" />
      <path
         id="path993"
         d="m -55.885042,-99.985232 c 0,0.366448 0.295011,0.661459 0.661459,0.661459 h 11.906249 c 0.366448,0 0.661459,-0.295011 0.661459,-0.661459 v -7.143748 c 0,-0.36645 -0.295011,-0.66146 -0.661459,-0.66146 h -6.746874 v -0.66146 c 0,-0.36645 -0.295011,-0.66146 -0.661459,-0.66146 h -4.497916 c -0.366448,0 -0.661459,0.29501 -0.661459,0.66146"
         style="fill:#12806a;stroke-width:0.08588292"
         inkscape:connector-curvature="0" />
      <rect
         id="rect995"
         ry="0.2147073"
         rx="0.2147073"
         y="-105.93835"
         x="-55.88504"
         height="8.4666662"
         width="13.229166"
         style="opacity:0.2;stroke-width:0.08588292" />
      <rect
         id="rect997"
         ry="0.2147073"
         rx="0.2147073"
         y="-106.99669"
         x="-55.091293"
         height="5.2916665"
         width="11.641666"
         style="fill:#e4e4e4;stroke-width:0.08588292" />
      <rect
         id="rect999"
         ry="0.2147073"
         rx="0.2147073"
         y="-105.67377"
         x="-55.88504"
         height="8.4666662"
         width="13.229166"
         style="fill:#16a085;stroke-width:0.08588292" />
      <path
         id="path1001"
         d="m -55.223583,-109.11336 c -0.366448,0 -0.661459,0.29501 -0.661459,0.66146 v 0.26458 c 0,-0.36644 0.295011,-0.66145 0.661459,-0.66145 h 4.497916 c 0.366448,0 0.661459,0.29501 0.661459,0.66145 v -0.26458 c 0,-0.36645 -0.295011,-0.66146 -0.661459,-0.66146 z m 5.159375,1.32292 v 0.26458 h 6.746874 c 0.367771,0 0.661459,0.29501 0.661459,0.66146 v -0.26458 c 0,-0.36645 -0.293688,-0.66146 -0.661459,-0.66146 z"
         style="opacity:0.1;fill:#ffffff;stroke-width:0.08588292"
         inkscape:connector-curvature="0" />
    </g>
    <path
       sodipodi:nodetypes="cc"
       inkscape:connector-curvature="0"
       id="path3808-7"
       d="m -151.16695,-90.630672 h 56.177968"
       style="opacity:0.283;fill:none;stroke:#3d5acc;stroke-width:0.76499999;stroke-linecap:butt;stroke-linejoin:miter;stroke-miterlimit:4;stroke-dasharray:none;stroke-opacity:1;marker-start:url(#marker1200);marker-end:url(#Arrow2Lend-6-6)" />
    <path
       sodipodi:nodetypes="cc"
       inkscape:connector-curvature="0"
       id="path3808-7-10"
       d="M -48.597018,-90.630672 H 7.58095"
       style="opacity:1;fill:none;stroke:#3d5acc;stroke-width:0.76499999;stroke-linecap:butt;stroke-linejoin:miter;stroke-miterlimit:4;stroke-dasharray:none;stroke-opacity:1;marker-start:url(#Arrow1Lstart);marker-end:url(#Arrow2Lend-6-8-7)" />
  </g>
</svg>
